<?xml version="1.0" encoding="utf-8"?>
<!-- Generator: Adobe Illustrator 25.0.0, SVG Export Plug-In . SVG Version: 6.00 Build 0)  -->
<svg version="1.1" id="Layer_1" xmlns="http://www.w3.org/2000/svg" xmlns:xlink="http://www.w3.org/1999/xlink" x="0px" y="0px"
	 viewBox="0 0 392 170.4" style="enable-background:new 0 0 392 170.4;" xml:space="preserve">
<style type="text/css">
	.st0{fill:#002D33;}
	.st1{fill:#3B1022;}
	.st2{fill:#090918;}
	.st3{fill:#101227;}
	.st4{fill:#0C2F2B;}
	.st5{fill:#0C0D0E;}
	.st6{fill:#202020;}
	.st7{fill:#005A66;}
	.st8{fill:#772044;}
	.st9{fill:#121230;}
	.st10{fill:#21244F;}
	.st11{fill:#195E57;}
	.st12{fill:#191B1C;}
	.st13{fill:#404040;}
	.st14{fill:#008698;}
	.st15{fill:#B23066;}
	.st16{fill:#1B1B48;}
	.st17{fill:#323676;}
	.st18{fill:#268C82;}
	.st19{fill:#252829;}
	.st20{fill:#605F5F;}
	.st21{fill:#00B3CB;}
	.st22{fill:#ED4088;}
	.st23{fill:#242460;}
	.st24{fill:#42489D;}
	.st25{fill:#32BBAD;}
	.st26{fill:#313537;stroke:#FFFFFF;stroke-width:0.6984;stroke-miterlimit:10;}
	.st27{fill:#807F7F;}
	.st28{fill:#33C2D5;}
	.st29{fill:#F166A0;}
	.st30{fill:#505080;}
	.st31{fill:#686DB1;}
	.st32{fill:#5BC9BD;}
	.st33{fill:#5A5D5F;}
	.st34{fill:#999999;}
	.st35{fill:#66D1E0;}
	.st36{fill:#F48CB8;}
	.st37{fill:#7C7CA0;}
	.st38{fill:#8E91C4;}
	.st39{fill:#84D6CE;}
	.st40{fill:#838687;}
	.st41{fill:#B3B2B2;}
	.st42{fill:#99E1EA;}
	.st43{fill:#F8B3CF;}
	.st44{fill:#A7A7BF;}
	.st45{fill:#B3B6D8;}
	.st46{fill:#ADE4DE;}
	.st47{fill:#ADAEAF;}
	.st48{fill:#CCCCCC;}
	.st49{fill:#CCF0F5;}
	.st50{fill:#FBD9E7;}
	.st51{fill:#D3D3DF;}
	.st52{fill:#D9DAEB;}
	.st53{fill:#D6F1EF;}
	.st54{fill:#D6D7D7;}
	.st55{fill:#E6E5E5;}
	.st56{fill:#AEE1F4;}
	.st57{fill:#86D6F4;}
	.st58{fill:#D2FAFA;}
	.st59{fill:none;}
	.st60{enable-background:new    ;}
	.st61{fill:#0CB2C8;}
	.st62{fill:none;stroke:#0CB2C8;stroke-width:0.164;stroke-miterlimit:10;}
	.st63{fill:#51C3CD;}
	.st64{fill:none;stroke:#51C3CD;stroke-width:0.656;stroke-miterlimit:10;}
	.st65{fill:#0CB2C8;stroke:#0CB2C8;stroke-width:0.164;stroke-miterlimit:10;}
	.st66{fill:none;stroke:#FFFFFF;stroke-width:4.920000e-02;stroke-miterlimit:10;}
	.st67{fill:#FFFFFF;stroke:#FFFFFF;stroke-width:4.100000e-02;stroke-miterlimit:10;}
	.st68{fill:#6BC9D0;}
</style>
<g id="Ice_Bg">
</g>
<g id="Chocolate_Ice">
	<rect x="-1060.7" y="-260.8" width="25.5" height="24.5"/>
	<rect x="-1028.7" y="-260.8" width="25.5" height="24.5"/>
	<rect x="-996.7" y="-260.8" width="25.5" height="24.5"/>
	<rect x="-918.6" y="-260.8" width="25.5" height="24.5"/>
	<rect x="-886.6" y="-260.8" width="25.5" height="24.5"/>
	<rect x="-826.7" y="-260.8" width="25.5" height="24.5"/>
	<rect x="-794.8" y="-260.8" width="25.5" height="24.5"/>
	<rect x="-1060.7" y="-222.6" class="st0" width="25.5" height="24.5"/>
	<rect x="-1028.7" y="-222.6" class="st1" width="25.5" height="24.5"/>
	<rect x="-996.7" y="-222.6" class="st2" width="25.5" height="24.5"/>
	<rect x="-918.6" y="-222.6" class="st3" width="25.5" height="24.5"/>
	<rect x="-886.6" y="-222.6" class="st4" width="25.5" height="24.5"/>
	<rect x="-826.7" y="-222.6" class="st5" width="25.5" height="24.5"/>
	<rect x="-794.8" y="-222.6" class="st6" width="25.5" height="24.5"/>
	<rect x="-1060.7" y="-184.4" class="st7" width="25.5" height="24.5"/>
	<rect x="-1028.7" y="-184.4" class="st8" width="25.5" height="24.5"/>
	<rect x="-996.7" y="-184.4" class="st9" width="25.5" height="24.5"/>
	<rect x="-918.6" y="-184.4" class="st10" width="25.5" height="24.5"/>
	<rect x="-886.6" y="-184.4" class="st11" width="25.5" height="24.5"/>
	<rect x="-826.7" y="-184.4" class="st12" width="25.5" height="24.5"/>
	<rect x="-794.8" y="-184.4" class="st13" width="25.5" height="24.5"/>
	<rect x="-1060.7" y="-146.2" class="st14" width="25.5" height="24.5"/>
	<rect x="-1028.4" y="-146.2" class="st15" width="25.5" height="24.5"/>
	<rect x="-996.6" y="-146.2" class="st16" width="25.5" height="24.5"/>
	<rect x="-917.9" y="-146.2" class="st17" width="25.5" height="24.5"/>
	<rect x="-885.2" y="-146.2" class="st18" width="25.5" height="24.5"/>
	<rect x="-825.4" y="-146.2" class="st19" width="25.5" height="24.5"/>
	<rect x="-794.8" y="-146.2" class="st20" width="25.5" height="24.5"/>
	<rect x="-1060.7" y="-108" class="st21" width="25.5" height="24.5"/>
	<rect x="-1028.4" y="-108" class="st22" width="25.5" height="24.5"/>
	<rect x="-996.6" y="-108" class="st23" width="25.5" height="24.5"/>
	<rect x="-917.9" y="-108" class="st24" width="25.5" height="24.5"/>
	<rect x="-885.2" y="-108" class="st25" width="25.5" height="24.5"/>
	<rect x="-825.4" y="-108" class="st26" width="25.5" height="24.5"/>
	<rect x="-794.8" y="-108" class="st27" width="25.5" height="24.5"/>
	<rect x="-1060.7" y="-69.8" class="st28" width="25.5" height="24.5"/>
	<rect x="-1028.4" y="-69.8" class="st29" width="25.5" height="24.5"/>
	<rect x="-996.6" y="-69.8" class="st30" width="25.5" height="24.5"/>
	<rect x="-917.9" y="-69.8" class="st31" width="25.5" height="24.5"/>
	<rect x="-885.2" y="-69.8" class="st32" width="25.5" height="24.5"/>
	<rect x="-825.4" y="-69.8" class="st33" width="25.5" height="24.5"/>
	<rect x="-794.8" y="-69.8" class="st34" width="25.5" height="24.5"/>
	<rect x="-1060.7" y="-31.6" class="st35" width="25.5" height="24.5"/>
	<rect x="-1028.4" y="-31.6" class="st36" width="25.5" height="24.5"/>
	<rect x="-996.6" y="-31.6" class="st37" width="25.5" height="24.5"/>
	<rect x="-917.9" y="-31.6" class="st38" width="25.5" height="24.5"/>
	<rect x="-885.2" y="-31.6" class="st39" width="25.5" height="24.5"/>
	<rect x="-825.4" y="-31.6" class="st40" width="25.5" height="24.5"/>
	<rect x="-794.8" y="-31.6" class="st41" width="25.5" height="24.5"/>
	<rect x="-1060.7" y="6.6" class="st42" width="25.5" height="24.5"/>
	<rect x="-1028.4" y="6.6" class="st43" width="25.5" height="24.5"/>
	<rect x="-996.6" y="6.6" class="st44" width="25.5" height="24.5"/>
	<rect x="-917.9" y="6.6" class="st45" width="25.5" height="24.5"/>
	<rect x="-885.2" y="6.6" class="st46" width="25.5" height="24.5"/>
	<rect x="-825.4" y="6.6" class="st47" width="25.5" height="24.5"/>
	<rect x="-794.8" y="6.6" class="st48" width="25.5" height="24.5"/>
	<rect x="-1060.7" y="44.8" class="st49" width="25.5" height="24.5"/>
	<rect x="-1028.4" y="44.8" class="st50" width="25.5" height="24.5"/>
	<rect x="-996.6" y="44.8" class="st51" width="25.5" height="24.5"/>
	<rect x="-917.9" y="44.8" class="st52" width="25.5" height="24.5"/>
	<rect x="-885.2" y="44.8" class="st53" width="25.5" height="24.5"/>
	<rect x="-825.4" y="44.8" class="st54" width="25.5" height="24.5"/>
	<rect x="-794.8" y="44.8" class="st55" width="25.5" height="24.5"/>
	<g>
		<polygon class="st21" points="-949.8,-563.2 -957.3,-563.2 -1001.6,-550.2 -905.4,-550.2 		"/>
		<polygon class="st21" points="-948,-702.2 -957.9,-702.2 -955.7,-558.2 -950.3,-558.2 		"/>
		<path class="st14" d="M-952-626.7c1,0,1.9,0.1,2.8,0.2l1.2-75.8h-9.8l1.2,76.2C-955.2-626.4-953.6-626.7-952-626.7z"/>
		<rect x="-1101.9" y="-763.4" class="st21" width="297.8" height="4.5"/>
		<path class="st21" d="M-1073.3-661.4c9.4-2,66-10.2,106.1-8.5c0,0-33.7-24.9-67.8-21.7C-1069-688.3-1073.3-661.4-1073.3-661.4z"/>
		<path class="st21" d="M-948.8-669.3c9.8-0.2,71.5-2.5,109.4,6.7c0,0-19.5-26.9-53.6-30.2C-927.1-696-948.8-669.3-948.8-669.3z"/>
		<path class="st56" d="M-1105.6-762.9c-0.1-0.7,0.2-1.4,0.8-1.9c0.7-0.5,1.6-0.8,2.7-0.8H-804c1,0,2,0.3,2.6,0.8s1,1.2,0.9,1.9
			c-2.5,16.6-16,104.5-24.9,105.1c-9.8,0.6-51.2-21.6-61.8-19.9c-10.6,1.7-47.5,11.5-75.3,9.3c-27.7-2.2-52.7-12.8-61.2-11.8
			c-18.8,2.2-44.1,21.3-53.9,19.6C-1086.4-662.2-1102.5-746.5-1105.6-762.9z"/>
		<g>
			<path class="st57" d="M-801.4-764.8c-0.7-0.5-1.6-0.8-2.6-0.8h-4.7c-0.5,38.2-22.8,72.1-57,93.5c15.6,6,34.2,14.6,40.3,14.3
				c8.9-0.5,22.4-88.5,24.9-105.1C-800.4-763.6-800.7-764.3-801.4-764.8z"/>
			<path class="st57" d="M-1094.1-765.6h-8c-1,0-2,0.3-2.7,0.8s-1,1.2-0.8,1.9c3.1,16.4,19.2,100.7,28.1,102.2
				c6.9,1.2,21.6-8,36.2-14.2C-1073.2-696.4-1093.7-729-1094.1-765.6z"/>
		</g>
		<path class="st58" d="M-1105.5-762.5c13.9,11.5,285,13.2,305,0c0.8-1.6,1.7-4.1-2.3-4.1h-300.4
			C-1107.2-766.6-1106.5-764.2-1105.5-762.5z"/>
		<path class="st28" d="M-884.2-684c-11.1,1.7-49.7,11.5-78.7,9.3s-55.1-12.8-64-11.8c-18.9,2.2-44.2,20-55.2,19.7
			c1.6,3.6,3.2,5.8,4.5,6.1c9.8,1.7,35.1-17.4,53.8-19.6c8.5-1,33.5,9.5,61.2,11.8c27.8,2.2,64.7-7.6,75.3-9.3
			c10.6-1.7,52,20.5,61.8,19.9c1.4-0.1,2.9-2.4,4.5-6.2C-833.1-665.2-873.5-685.6-884.2-684z"/>
	</g>
</g>
<g id="Yellow_ice">
	<g>
		<rect x="0.1" y="40.2" class="st59" width="369.6" height="74.5"/>
		<g class="st60">
			<path class="st61" d="M27.6,106.6c-4.1,0-7.8-0.6-11-1.9c-3.2-1.3-5.9-3-8.1-5.2c-2.2-2.2-3.8-4.8-5-7.6
				c-1.1-2.9-1.7-5.9-1.7-9.1c0-3.4,0.6-6.6,1.7-9.7c1.1-3.1,2.8-5.7,4.9-8c2.2-2.3,4.9-4.1,8.1-5.4c3.2-1.3,6.9-2,11.2-2
				c4.2,0,7.9,0.7,11.1,2c3.2,1.3,5.9,3.1,8.1,5.4c2.2,2.2,3.8,4.8,4.9,7.8c1.1,3,1.7,6.1,1.7,9.3c0,0.9,0,1.8-0.1,2.7
				c-0.1,0.9-0.2,1.7-0.3,2.5H19.9c0.2,2.5,1.1,4.3,2.8,5.4c1.7,1.1,3.5,1.7,5.5,1.7c1.9,0,3.6-0.4,5.2-1.3c1.6-0.8,2.7-2,3.3-3.5
				l14.4,4.1c-1.9,3.8-4.9,6.8-8.8,9.2C38.3,105.4,33.4,106.6,27.6,106.6z M35.2,77c-0.3-2.3-1.1-4.1-2.5-5.4c-1.4-1.3-3.1-2-5.3-2
				s-3.9,0.7-5.3,2c-1.4,1.3-2.2,3.1-2.5,5.4H35.2z"/>
			<path class="st61" d="M92.1,73c-3.3,0-6.3,0.4-9,1.1s-4.7,1.9-6,3.6v28h-17V58.5h15.6v9c1.7-3.2,3.8-5.6,6.2-7.3
				c2.5-1.7,5.2-2.6,8-2.6c1.1,0,1.9,0,2.2,0.1V73z"/>
			<path class="st61" d="M121.3,106.6c-4.1,0-7.8-0.6-11-1.9c-3.2-1.3-5.9-3-8.1-5.2c-2.2-2.2-3.8-4.8-5-7.6
				c-1.1-2.9-1.7-5.9-1.7-9.1c0-3.4,0.6-6.6,1.7-9.7c1.1-3.1,2.8-5.7,4.9-8c2.2-2.3,4.9-4.1,8.1-5.4c3.2-1.3,6.9-2,11.2-2
				c4.2,0,7.9,0.7,11.1,2c3.2,1.3,5.9,3.1,8.1,5.4c2.2,2.2,3.8,4.8,4.9,7.8c1.1,3,1.7,6.1,1.7,9.3c0,0.9,0,1.8-0.1,2.7
				c-0.1,0.9-0.2,1.7-0.3,2.5h-33.1c0.2,2.5,1.1,4.3,2.8,5.4c1.7,1.1,3.5,1.7,5.5,1.7c1.9,0,3.6-0.4,5.2-1.3c1.6-0.8,2.7-2,3.3-3.5
				l14.4,4.1c-1.9,3.8-4.9,6.8-8.8,9.2C132,105.4,127.1,106.6,121.3,106.6z M128.8,77c-0.3-2.3-1.1-4.1-2.5-5.4
				c-1.4-1.3-3.1-2-5.3-2s-3.9,0.7-5.3,2c-1.4,1.3-2.2,3.1-2.5,5.4H128.8z"/>
			<path class="st61" d="M163.9,105.7L148,58.5h17.5l8.4,33.8l8.5-33.8h15.9l-15.9,47.2H163.9z"/>
			<path class="st61" d="M217.7,106.6c-4.8,0-8.4-1.5-10.9-4.4c-2.5-2.9-3.8-7.1-3.8-12.7v-31h17v27.2c0,2.1,0.5,3.7,1.4,4.8
				c0.9,1.1,2.2,1.7,3.8,1.7c1.3,0,2.7-0.3,4-0.9c1.4-0.6,2.8-1.9,4.1-3.9V58.5h17v28.4c0,1.6,0.3,2.7,0.9,3.4
				c0.6,0.6,1.7,1,3.2,1.1v14.4c-1.7,0.3-3.3,0.5-4.6,0.7c-1.3,0.1-2.5,0.2-3.5,0.2c-5.8,0-9.2-2.2-10-6.5l-0.4-1.7
				c-2.2,2.9-4.8,5-7.9,6.3C225.2,105.9,221.7,106.6,217.7,106.6z"/>
			<path class="st61" d="M293.4,105.7l-10.7-17.2l-3.4,3.8v13.5h-17V40.2h17V76l12.6-17.5h17.9l-16.2,20.6l17.9,26.6H293.4z"/>
			<path class="st61" d="M328.4,106.6c-2.3,0-4.5-0.4-6.5-1.2c-2-0.8-3.8-1.8-5.2-3.2c-1.5-1.3-2.6-2.9-3.5-4.8
				c-0.8-1.9-1.3-3.9-1.3-6c0-2.4,0.5-4.6,1.5-6.5c1-2,2.4-3.7,4.2-5.1c1.8-1.4,3.9-2.5,6.4-3.3c2.5-0.8,5.2-1.2,8.2-1.2
				c3.8,0,7,0.6,9.5,1.8v-1.4c0-2.2-0.6-3.9-1.9-4.9c-1.3-1.1-3.4-1.6-6.2-1.6c-2.7,0-5.2,0.4-7.4,1.3c-2.3,0.9-4.7,2.1-7.2,3.8
				l-4.9-10.6c6.2-4,13.3-6,21.3-6c7.5,0,13.3,1.7,17.4,5c4.1,3.4,6.1,8.4,6.1,15.1v9.2c0,1.6,0.3,2.7,0.9,3.4
				c0.6,0.6,1.7,1,3.2,1.1v14.4c-1.6,0.3-3,0.5-4.4,0.7c-1.4,0.1-2.6,0.2-3.7,0.2c-3,0-5.4-0.6-7-1.7c-1.6-1.1-2.6-2.7-3.1-4.9
				l-0.4-1.7c-2.1,2.7-4.5,4.7-7.3,6.1C334.5,105.9,331.5,106.6,328.4,106.6z M333.6,94.4c1,0,2.1-0.2,3.1-0.5
				c1.1-0.3,2-0.8,2.9-1.3c0.7-0.5,1.2-1,1.6-1.6c0.4-0.6,0.6-1.2,0.6-1.7v-3.5c-1-0.4-2.1-0.7-3.3-0.9c-1.2-0.2-2.3-0.4-3.2-0.4
				c-2.1,0-3.8,0.5-5.2,1.5c-1.4,1-2.1,2.3-2.1,3.9c0,1.3,0.5,2.4,1.6,3.2C330.6,93.9,331.9,94.4,333.6,94.4z"/>
		</g>
		<g class="st60">
			<path class="st62" d="M27.6,106.6c-4.1,0-7.8-0.6-11-1.9c-3.2-1.3-5.9-3-8.1-5.2c-2.2-2.2-3.8-4.8-5-7.6
				c-1.1-2.9-1.7-5.9-1.7-9.1c0-3.4,0.6-6.6,1.7-9.7c1.1-3.1,2.8-5.7,4.9-8c2.2-2.3,4.9-4.1,8.1-5.4c3.2-1.3,6.9-2,11.2-2
				c4.2,0,7.9,0.7,11.1,2c3.2,1.3,5.9,3.1,8.1,5.4c2.2,2.2,3.8,4.8,4.9,7.8c1.1,3,1.7,6.1,1.7,9.3c0,0.9,0,1.8-0.1,2.7
				c-0.1,0.9-0.2,1.7-0.3,2.5H19.9c0.2,2.5,1.1,4.3,2.8,5.4c1.7,1.1,3.5,1.7,5.5,1.7c1.9,0,3.6-0.4,5.2-1.3c1.6-0.8,2.7-2,3.3-3.5
				l14.4,4.1c-1.9,3.8-4.9,6.8-8.8,9.2C38.3,105.4,33.4,106.6,27.6,106.6z M35.2,77c-0.3-2.3-1.1-4.1-2.5-5.4c-1.4-1.3-3.1-2-5.3-2
				s-3.9,0.7-5.3,2c-1.4,1.3-2.2,3.1-2.5,5.4H35.2z"/>
			<path class="st62" d="M92.1,73c-3.3,0-6.3,0.4-9,1.1s-4.7,1.9-6,3.6v28h-17V58.5h15.6v9c1.7-3.2,3.8-5.6,6.2-7.3
				c2.5-1.7,5.2-2.6,8-2.6c1.1,0,1.9,0,2.2,0.1V73z"/>
			<path class="st62" d="M121.3,106.6c-4.1,0-7.8-0.6-11-1.9c-3.2-1.3-5.9-3-8.1-5.2c-2.2-2.2-3.8-4.8-5-7.6
				c-1.1-2.9-1.7-5.9-1.7-9.1c0-3.4,0.6-6.6,1.7-9.7c1.1-3.1,2.8-5.7,4.9-8c2.2-2.3,4.9-4.1,8.1-5.4c3.2-1.3,6.9-2,11.2-2
				c4.2,0,7.9,0.7,11.1,2c3.2,1.3,5.9,3.1,8.1,5.4c2.2,2.2,3.8,4.8,4.9,7.8c1.1,3,1.7,6.1,1.7,9.3c0,0.9,0,1.8-0.1,2.7
				c-0.1,0.9-0.2,1.7-0.3,2.5h-33.1c0.2,2.5,1.1,4.3,2.8,5.4c1.7,1.1,3.5,1.7,5.5,1.7c1.9,0,3.6-0.4,5.2-1.3c1.6-0.8,2.7-2,3.3-3.5
				l14.4,4.1c-1.9,3.8-4.9,6.8-8.8,9.2C132,105.4,127.1,106.6,121.3,106.6z M128.8,77c-0.3-2.3-1.1-4.1-2.5-5.4
				c-1.4-1.3-3.1-2-5.3-2s-3.9,0.7-5.3,2c-1.4,1.3-2.2,3.1-2.5,5.4H128.8z"/>
			<path class="st62" d="M163.9,105.7L148,58.5h17.5l8.4,33.8l8.5-33.8h15.9l-15.9,47.2H163.9z"/>
			<path class="st62" d="M217.7,106.6c-4.8,0-8.4-1.5-10.9-4.4c-2.5-2.9-3.8-7.1-3.8-12.7v-31h17v27.2c0,2.1,0.5,3.7,1.4,4.8
				c0.9,1.1,2.2,1.7,3.8,1.7c1.3,0,2.7-0.3,4-0.9c1.4-0.6,2.8-1.9,4.1-3.9V58.5h17v28.4c0,1.6,0.3,2.7,0.9,3.4
				c0.6,0.6,1.7,1,3.2,1.1v14.4c-1.7,0.3-3.3,0.5-4.6,0.7c-1.3,0.1-2.5,0.2-3.5,0.2c-5.8,0-9.2-2.2-10-6.5l-0.4-1.7
				c-2.2,2.9-4.8,5-7.9,6.3C225.2,105.9,221.7,106.6,217.7,106.6z"/>
			<path class="st62" d="M293.4,105.7l-10.7-17.2l-3.4,3.8v13.5h-17V40.2h17V76l12.6-17.5h17.9l-16.2,20.6l17.9,26.6H293.4z"/>
			<path class="st62" d="M328.4,106.6c-2.3,0-4.5-0.4-6.5-1.2c-2-0.8-3.8-1.8-5.2-3.2c-1.5-1.3-2.6-2.9-3.5-4.8
				c-0.8-1.9-1.3-3.9-1.3-6c0-2.4,0.5-4.6,1.5-6.5c1-2,2.4-3.7,4.2-5.1c1.8-1.4,3.9-2.5,6.4-3.3c2.5-0.8,5.2-1.2,8.2-1.2
				c3.8,0,7,0.6,9.5,1.8v-1.4c0-2.2-0.6-3.9-1.9-4.9c-1.3-1.1-3.4-1.6-6.2-1.6c-2.7,0-5.2,0.4-7.4,1.3c-2.3,0.9-4.7,2.1-7.2,3.8
				l-4.9-10.6c6.2-4,13.3-6,21.3-6c7.5,0,13.3,1.7,17.4,5c4.1,3.4,6.1,8.4,6.1,15.1v9.2c0,1.6,0.3,2.7,0.9,3.4
				c0.6,0.6,1.7,1,3.2,1.1v14.4c-1.6,0.3-3,0.5-4.4,0.7c-1.4,0.1-2.6,0.2-3.7,0.2c-3,0-5.4-0.6-7-1.7c-1.6-1.1-2.6-2.7-3.1-4.9
				l-0.4-1.7c-2.1,2.7-4.5,4.7-7.3,6.1C334.5,105.9,331.5,106.6,328.4,106.6z M333.6,94.4c1,0,2.1-0.2,3.1-0.5
				c1.1-0.3,2-0.8,2.9-1.3c0.7-0.5,1.2-1,1.6-1.6c0.4-0.6,0.6-1.2,0.6-1.7v-3.5c-1-0.4-2.1-0.7-3.3-0.9c-1.2-0.2-2.3-0.4-3.2-0.4
				c-2.1,0-3.8,0.5-5.2,1.5c-1.4,1-2.1,2.3-2.1,3.9c0,1.3,0.5,2.4,1.6,3.2C330.6,93.9,331.9,94.4,333.6,94.4z"/>
		</g>
		<path class="st63" d="M20.2,87.6L4.4,94.3c0,0,7.3,16.2,28.9,13c0,0,11.6-1.3,18.4-13.8l-15.2-4.7c0,0-3.3,7-12.5,4.2
			C23.9,93,20.5,92.6,20.2,87.6z"/>
		<path class="st63" d="M114.5,87.5L99.3,95c0,0,7.1,15.4,28.8,11.6c0,0,12.1-1.7,18.8-13l-16-4.7c0,0-2.9,6-11.3,4.1
			C119.5,93,116.1,92.6,114.5,87.5z"/>
		<path class="st63" d="M60.3,58.3c0.8,1.5,17.3,48,17.3,48H60L60.3,58.3z"/>
		<polygon class="st63" points="166.9,58.2 164.6,105.3 148.9,58.2 		"/>
		<polygon class="st63" points="183.4,58.2 192.1,81.1 199.7,58.2 		"/>
		<path class="st63" d="M221.6,58.2l-14.3,42.8c0,0-3.7-1.8-3.5-14.6l0.5-28.2L221.6,58.2L221.6,58.2z"/>
		<path class="st63" d="M256.3,91.2l-16.7,12.6c0,0,2.9,5.3,16.9,2L256.3,91.2z"/>
		<polygon class="st63" points="281.2,39.9 264,104.9 264,39.9 		"/>
		<polygon class="st63" points="304,91.8 295.1,105.8 313.7,105.8 		"/>
		<path class="st63" d="M316.2,64l5.6,11c0,0,8-6,14.6-6l5.6-11.8C342.1,57.3,327.4,56.2,316.2,64z"/>
		<path class="st63" d="M323.6,88.4l-16.6,12.3c0,0,1.9,5.3,16.6,2.2V88.4z"/>
		<line class="st64" x1="304.4" y1="58.4" x2="264.4" y2="105.2"/>
		<line class="st64" x1="243" y1="58.4" x2="242.5" y2="103.5"/>
		<line class="st64" x1="108.8" y1="60.4" x2="108.7" y2="92.3"/>
		<line class="st64" x1="75.4" y1="58.6" x2="67.7" y2="82.6"/>
		<line class="st64" x1="19.9" y1="87.6" x2="7.5" y2="66.1"/>
		<line class="st64" x1="116.8" y1="57.9" x2="146.9" y2="86.8"/>
		<line class="st64" x1="188.9" y1="69.5" x2="174.5" y2="105.3"/>
		<line class="st64" x1="212.6" y1="83.4" x2="226.2" y2="105.8"/>
		<line class="st64" x1="281.2" y1="69.4" x2="303.4" y2="104.3"/>
		<g>
			<path class="st65" d="M154.7,12.1c0,0-0.2-11.3-12.5-12c0,0-8.4-1.1-12.4,9c0,0-0.3,0.6-2.5,0.1c0,0-14.2-3.2-18.4,12.7
				c-0.4,1.7-0.8,15.8,14.2,17.6c0,0,3.7,0.5,6.9-0.9c0,0,0.5-0.7,1.8,1.7c0,0,7.5,11.3,20.6,3.8c0,0,6.4-3.6,6.3-12
				c0,0-0.3-0.5,2.4-1.5c0,0,9-5.6,1.8-14.8c0,0-1.8-2.5-6.1-2.6C156.8,13.1,155.2,13.6,154.7,12.1z"/>
			<path class="st65" d="M160.9,44.8c0.6,2.1,2.8,3.4,5,2.8c2.1-0.6,3.4-2.8,2.8-5c-0.6-2.1-2.8-3.4-5-2.8
				C161.6,40.5,160.3,42.7,160.9,44.8z"/>
			<path class="st65" d="M171.1,50.8c0.4,1.2,1.7,2,2.9,1.6s2-1.7,1.6-2.9c-0.4-1.2-1.7-2-2.9-1.6S170.8,49.6,171.1,50.8z"/>
		</g>
		<g>
			<g>
				<g>
					<path class="st66" d="M121.3,33.7l-2.9-4.6l0.2-6.1c0,0,3.1-5.1,3.3-4.9c0.2,0.2,8.3-6.1,8.3-6.1l8.5-1.5l9.1,3.4l5.7,6.4
						l1.3,5l-1.6,4.4l-1.4,0.2l-1.6,2.7l-2.6,0.3l-0.8,0.1l-0.7,1.5l1.2,2l0.8,0.8l-2.6,1.1l-7.5-5.1l-2.8-0.8l-2.6,2.2l-4.8-0.2
						l-5.8-0.3L121.3,33.7z"/>
					<polyline class="st66" points="119,22.7 124.4,24.1 128.7,28.6 132.6,34.8 					"/>
					<polyline class="st66" points="130.3,12 135.1,19.9 138.8,24.1 145.4,28.4 150.2,32.7 					"/>
					<polyline class="st66" points="138.8,10.5 140.8,15.6 145.7,22.7 153.2,29.4 					"/>
					<polyline class="st66" points="118.4,29.1 124.4,24.1 128.5,18.5 130.4,12.1 					"/>
					<line class="st66" x1="118.5" y1="29" x2="131.9" y2="34.8"/>
					<line class="st66" x1="153.8" y1="21.3" x2="130.4" y2="12.1"/>
					<line class="st66" x1="127.9" y1="34.6" x2="122" y2="18.1"/>
					<line class="st66" x1="121.6" y1="34.2" x2="124.4" y2="24.1"/>
					<polyline class="st66" points="128.9,29 131.7,23 135.1,19.9 140,15.9 141.7,15.1 147.9,13.9 					"/>
					<polyline class="st66" points="134.6,33.1 128.7,28.6 137.2,28.4 139,24.4 140.9,15.4 147.7,14 					"/>
					<polyline class="st66" points="134.4,33.2 137.2,28.4 137.6,33 141.4,32.3 145.6,28.9 154.8,25.3 					"/>
					<polyline class="st66" points="142.5,36.4 139.4,24.3 153,21 					"/>
					<polyline class="st66" points="147.9,13.9 145.9,22.8 145.6,28.9 146.8,33.2 					"/>
					<line class="st66" x1="151.8" y1="30" x2="146.1" y2="28.6"/>
					<polygon class="st66" points="128.5,18.5 135.1,19.9 133.4,16.8 					"/>
					<line class="st66" x1="140.7" y1="15.4" x2="133.4" y2="16.8"/>
					<polyline class="st66" points="145.5,38.6 146.1,34.7 141.4,32.3 131.7,23 128.5,18.5 121.9,18.1 					"/>
					<polygon class="st66" points="142.5,36.4 146.1,34.7 145.6,37 					"/>
					<line class="st66" x1="148.1" y1="37.5" x2="145.6" y2="37"/>
					<polyline class="st66" points="152.5,20.9 153.9,21.5 152.2,26.4 150.5,27.1 145.9,22.8 152.2,24.7 154.7,25.3 					"/>
				</g>
			</g>
			<g>
				<path class="st67" d="M122.1,33.9c0.1,0.3-0.2,0.7-0.5,0.8c-0.4,0.1-0.7-0.2-0.8-0.5c-0.1-0.3,0.2-0.7,0.5-0.8
					S122.1,33.5,122.1,33.9z"/>
				<path class="st67" d="M128.6,34.5c0.1,0.4-0.2,0.7-0.5,0.8c-0.3,0.1-0.7-0.2-0.8-0.5c-0.1-0.4,0.2-0.7,0.5-0.8
					C128.2,33.9,128.5,34.1,128.6,34.5z"/>
				<path class="st67" d="M133,34.6c0.1,0.3-0.2,0.7-0.5,0.8c-0.4,0.1-0.7-0.2-0.8-0.5c-0.1-0.3,0.2-0.7,0.5-0.8
					C132.6,34,132.9,34.2,133,34.6z"/>
				<path class="st67" d="M135.3,32.9c0.1,0.3-0.2,0.7-0.5,0.8c-0.4,0.1-0.7-0.2-0.8-0.5c-0.1-0.3,0.2-0.7,0.5-0.8
					C134.9,32.3,135.2,32.6,135.3,32.9z"/>
				<path class="st67" d="M138.4,32.9c0.1,0.3-0.2,0.7-0.5,0.7c-0.4,0.1-0.7-0.2-0.8-0.5c-0.1-0.4,0.2-0.7,0.5-0.8
					C137.9,32.3,138.3,32.6,138.4,32.9z"/>
				<path class="st67" d="M143.3,36.1c0.1,0.4-0.2,0.7-0.5,0.8c-0.4,0.1-0.7-0.2-0.8-0.5c-0.1-0.3,0.2-0.7,0.5-0.8
					C142.9,35.5,143.2,35.7,143.3,36.1z"/>
				<path class="st67" d="M146,38.7c0.1,0.3-0.2,0.7-0.5,0.8c-0.4,0.1-0.7-0.2-0.7-0.5c-0.1-0.3,0.2-0.7,0.5-0.7
					C145.6,38,145.9,38.3,146,38.7z"/>
				<path class="st67" d="M148.7,37.4c0.1,0.3-0.2,0.7-0.5,0.8c-0.4,0.1-0.7-0.2-0.8-0.5c-0.1-0.3,0.2-0.7,0.5-0.8
					C148.3,36.8,148.6,37,148.7,37.4z"/>
				<path class="st67" d="M146.6,34.6c0.1,0.3-0.2,0.7-0.5,0.8c-0.4,0.1-0.7-0.2-0.8-0.5c-0.1-0.4,0.2-0.7,0.5-0.8
					C146.2,34,146.5,34.2,146.6,34.6z"/>
				<path class="st67" d="M150.9,32.5c0.1,0.4-0.2,0.7-0.5,0.8c-0.4,0-0.7-0.2-0.7-0.5c-0.1-0.4,0.2-0.7,0.5-0.8
					C150.6,31.9,150.9,32.2,150.9,32.5z"/>
				<path class="st67" d="M153.8,29.5c0.1,0.4-0.2,0.7-0.5,0.8c-0.4,0.1-0.7-0.2-0.8-0.5c-0.1-0.4,0.2-0.7,0.5-0.8
					C153.4,28.9,153.7,29.1,153.8,29.5z"/>
				<path class="st67" d="M155.4,25.1c0.1,0.4-0.2,0.7-0.5,0.8c-0.4,0.1-0.7-0.2-0.8-0.5c-0.1-0.4,0.2-0.7,0.5-0.8
					C155.1,24.6,155.4,24.8,155.4,25.1z"/>
				<path class="st67" d="M154.3,20.9c0.1,0.4-0.2,0.7-0.5,0.8s-0.7-0.2-0.8-0.5c-0.1-0.4,0.2-0.7,0.5-0.8
					C153.9,20.3,154.2,20.5,154.3,20.9z"/>
				<path class="st67" d="M148.6,13.8c0.1,0.4-0.2,0.7-0.5,0.8s-0.7-0.2-0.8-0.5c-0.1-0.4,0.2-0.7,0.5-0.8
					C148.2,13.2,148.6,13.5,148.6,13.8z"/>
				<path class="st67" d="M139.5,10.4c0.1,0.4-0.2,0.7-0.5,0.8c-0.4,0.1-0.7-0.2-0.7-0.5c-0.1-0.4,0.2-0.7,0.5-0.8
					C139.1,9.8,139.5,10,139.5,10.4z"/>
				<path class="st67" d="M131.1,11.8c0.1,0.4-0.2,0.7-0.5,0.8c-0.4,0.1-0.7-0.2-0.8-0.5c-0.1-0.4,0.2-0.7,0.5-0.8
					C130.7,11.2,131.1,11.4,131.1,11.8z"/>
				<path class="st67" d="M122.8,17.9c0.1,0.4-0.2,0.7-0.5,0.8c-0.4,0.1-0.7-0.2-0.8-0.5s0.2-0.7,0.5-0.8
					C122.4,17.3,122.8,17.6,122.8,17.9z"/>
				<path class="st67" d="M119.8,22.6c0.1,0.4-0.2,0.7-0.5,0.8c-0.3,0.1-0.7-0.2-0.8-0.5c-0.1-0.4,0.2-0.7,0.5-0.8
					C119.4,22,119.7,22.2,119.8,22.6z"/>
				<path class="st67" d="M119.2,28.9c0.1,0.4-0.2,0.7-0.5,0.8c-0.4,0.1-0.7-0.2-0.8-0.5c-0.1-0.4,0.2-0.7,0.5-0.8
					C118.8,28.3,119.2,28.6,119.2,28.9z"/>
				<path class="st67" d="M129.4,28.5c0.1,0.4-0.2,0.7-0.5,0.8s-0.7-0.2-0.7-0.5c-0.1-0.4,0.2-0.7,0.5-0.7
					C129,27.9,129.4,28.1,129.4,28.5z"/>
				<path class="st67" d="M132.2,22.8c0.1,0.4-0.2,0.7-0.5,0.8c-0.4,0.1-0.7-0.2-0.8-0.5c-0.1-0.4,0.2-0.7,0.5-0.7
					C131.8,22.2,132.2,22.4,132.2,22.8z"/>
				<path class="st67" d="M135.9,19.8c0.1,0.4-0.2,0.7-0.5,0.8s-0.7-0.2-0.8-0.5c-0.1-0.4,0.2-0.7,0.5-0.8
					C135.5,19.2,135.8,19.4,135.9,19.8z"/>
				<path class="st67" d="M141.3,15.5c0.1,0.4-0.2,0.7-0.5,0.7c-0.4,0.1-0.7-0.2-0.8-0.5c-0.1-0.4,0.2-0.7,0.5-0.8
					C140.9,14.9,141.2,15.1,141.3,15.5z"/>
				<path class="st67" d="M147.4,18.5c0.1,0.4-0.2,0.7-0.5,0.8c-0.4,0.1-0.7-0.2-0.8-0.5c-0.1-0.4,0.2-0.7,0.5-0.8
					C147,17.9,147.3,18.1,147.4,18.5z"/>
				<path class="st67" d="M146.6,22.6c0.1,0.4-0.2,0.7-0.5,0.8c-0.4,0.1-0.7-0.2-0.7-0.5c-0.1-0.4,0.2-0.7,0.5-0.8
					C146.2,22.1,146.6,22.3,146.6,22.6z"/>
				<path class="st67" d="M146.4,28.5c0.1,0.4-0.2,0.7-0.5,0.8s-0.7-0.2-0.8-0.5s0.2-0.7,0.5-0.8C146,27.9,146.4,28.2,146.4,28.5z"
					/>
				<path class="st67" d="M142.2,32.2c0.1,0.4-0.2,0.7-0.5,0.8c-0.4,0.1-0.7-0.2-0.8-0.5c-0.1-0.4,0.2-0.7,0.5-0.8
					S142.1,31.8,142.2,32.2z"/>
				<path class="st67" d="M134,16.6c0.1,0.4-0.2,0.7-0.5,0.8c-0.4,0.1-0.7-0.2-0.8-0.5c-0.1-0.4,0.2-0.7,0.5-0.8
					C133.6,16,133.9,16.3,134,16.6z"/>
				<path class="st67" d="M129.1,18.5c0.1,0.4-0.2,0.7-0.5,0.8c-0.4,0.1-0.7-0.2-0.7-0.5s0.2-0.7,0.5-0.8
					C128.7,17.9,129,18.1,129.1,18.5z"/>
				<path class="st67" d="M124.9,24.2c0.1,0.4-0.2,0.7-0.5,0.8c-0.3,0-0.7-0.2-0.8-0.5s0.2-0.7,0.5-0.8
					C124.5,23.6,124.8,23.9,124.9,24.2z"/>
				<path class="st67" d="M123.2,30.6c0.1,0.4-0.2,0.7-0.5,0.8s-0.7-0.2-0.8-0.5c-0.1-0.4,0.2-0.7,0.5-0.8
					C122.8,30,123.2,30.3,123.2,30.6z"/>
				<path class="st67" d="M139.8,24.6c0.1,0.4-0.2,0.7-0.5,0.8c-0.4,0.1-0.7-0.2-0.7-0.5c-0.1-0.4,0.2-0.7,0.5-0.7
					C139.4,24,139.8,24.2,139.8,24.6z"/>
				<path class="st67" d="M137.8,28.3c0.1,0.4-0.2,0.7-0.5,0.8c-0.4,0.1-0.7-0.2-0.8-0.5c-0.1-0.4,0.2-0.7,0.5-0.8
					C137.4,27.7,137.7,27.9,137.8,28.3z"/>
				<path class="st67" d="M146.4,36.8c0.1,0.3-0.1,0.6-0.4,0.6c-0.3,0-0.6-0.2-0.6-0.5c-0.1-0.3,0.1-0.6,0.4-0.6
					C146.1,36.3,146.4,36.5,146.4,36.8z"/>
			</g>
		</g>
		<g>
			<rect x="7.2" y="125.3" class="st59" width="384.8" height="30.4"/>
			<g class="st60">
				<path class="st68" d="M14.3,139.8v10.5H9.6v-23.6h4.7v10.6l8.6-10.6h5.7l-9.8,11.7l10,11.9h-6L14.3,139.8z"/>
				<path class="st68" d="M45.2,140c0-3-1.7-4.6-4.2-4.6c-2.6,0-4.2,1.6-4.2,4.6v10.4H32v-18.8h4.7v2.3c1.2-1.6,3.3-2.6,5.7-2.6
					c4.4,0,7.5,2.8,7.5,8v11h-4.7V140z"/>
				<path class="st68" d="M62.8,150.6c-5.4,0-9.5-3.8-9.5-9.7c0-5.9,4.2-9.7,9.7-9.7s9.7,3.8,9.7,9.7
					C72.5,146.8,68.2,150.6,62.8,150.6z M62.8,146.5c2.5,0,4.9-1.8,4.9-5.6c0-3.8-2.3-5.6-4.8-5.6s-4.8,1.8-4.8,5.6
					C58,144.7,60.2,146.5,62.8,146.5z"/>
				<path class="st68" d="M73.9,131.6h4.8l3.3,14.3l3.6-14.3h5l3.5,14.3l3.3-14.3h4.5l-5.5,18.8h-5.1L88,137.2l-3.4,13.1h-5.1
					L73.9,131.6z"/>
				<path class="st68" d="M104.6,125.3h4.7v25.1h-4.7V125.3z"/>
				<path class="st68" d="M122.2,150.6c-5.5,0-9.4-3.8-9.4-9.7c0-5.9,3.9-9.7,9.4-9.7c5.4,0,9.2,3.7,9.2,9.3c0,0.6,0,1.2-0.1,1.8
					h-13.7c0.2,2.8,2.1,4.3,4.5,4.3c2,0,3.2-1,3.8-2.3h5.1C130,147.9,126.9,150.6,122.2,150.6z M117.7,139.2h8.9c-0.1-2.5-2-4-4.5-4
					C119.8,135.1,118,136.6,117.7,139.2z"/>
				<path class="st68" d="M142.3,131.2c2.5,0,4.8,1.2,6.1,2.9v-8.9h4.8v25.1h-4.8v-2.8c-1.1,1.7-3.2,3.1-6.2,3.1
					c-4.8,0-8.6-3.9-8.6-9.8S137.5,131.2,142.3,131.2z M143.5,135.4c-2.5,0-4.9,1.9-4.9,5.5s2.4,5.6,4.9,5.6c2.6,0,5-2,5-5.5
					C148.5,137.4,146.1,135.4,143.5,135.4z"/>
				<path class="st68" d="M165.3,131.2c2.9,0,5.1,1.4,6.2,3v-2.7h4.8v18.9c0,5.1-3.1,9.1-9.3,9.1c-5.3,0-9-2.6-9.5-6.9h4.7
					c0.5,1.7,2.2,2.8,4.6,2.8c2.6,0,4.6-1.5,4.6-5v-2.9c-1.1,1.6-3.3,3.1-6.2,3.1c-4.8,0-8.6-3.9-8.6-9.8S160.5,131.2,165.3,131.2z
					 M166.5,135.4c-2.5,0-4.9,1.9-4.9,5.5s2.4,5.6,4.9,5.6c2.6,0,5-2,5-5.5C171.5,137.4,169.1,135.4,166.5,135.4z"/>
				<path class="st68" d="M189.1,150.6c-5.5,0-9.4-3.8-9.4-9.7c0-5.9,3.9-9.7,9.4-9.7c5.4,0,9.2,3.7,9.2,9.3c0,0.6,0,1.2-0.1,1.8
					h-13.7c0.2,2.8,2.1,4.3,4.5,4.3c2,0,3.1-1,3.8-2.3h5.1C196.8,147.9,193.7,150.6,189.1,150.6z M184.5,139.2h8.9
					c-0.1-2.5-2-4-4.5-4C186.7,135.1,184.9,136.6,184.5,139.2z"/>
				<path class="st68" d="M209.8,126.7h4.7v23.6h-4.7V126.7z"/>
				<path class="st68" d="M232.4,140c0-3-1.7-4.6-4.2-4.6c-2.6,0-4.2,1.6-4.2,4.6v10.4h-4.7v-18.8h4.7v2.3c1.2-1.6,3.3-2.6,5.7-2.6
					c4.4,0,7.5,2.8,7.5,8v11h-4.7V140z"/>
				<path class="st68" d="M248.8,150.6c-4.7,0-8-2.7-8.2-6.2h4.8c0.2,1.4,1.5,2.5,3.4,2.5c1.9,0,2.9-0.8,2.9-1.9
					c0-3.4-10.6-1.2-10.6-8.1c0-3.1,2.8-5.6,7.4-5.6c4.5,0,7.3,2.5,7.6,6.2h-4.5c-0.1-1.5-1.3-2.4-3.2-2.4c-1.8,0-2.7,0.7-2.7,1.8
					c0,3.4,10.4,1.3,10.5,8.2C256.2,148.2,253.4,150.6,248.8,150.6z"/>
				<path class="st68" d="M271,131.2c4.8,0,8.6,3.8,8.6,9.6s-3.8,9.8-8.6,9.8c-2.9,0-5-1.5-6.2-3v11.6h-4.7v-27.7h4.7v2.7
					C266,132.7,268.1,131.2,271,131.2z M269.8,135.4c-2.5,0-4.9,2-4.9,5.5c0,3.6,2.4,5.5,4.9,5.5c2.6,0,5-2,5-5.6
					S272.4,135.4,269.8,135.4z"/>
				<path class="st68" d="M282.6,126.5c0-1.6,1.2-2.8,2.9-2.8c1.7,0,2.9,1.2,2.9,2.8c0,1.6-1.3,2.8-2.9,2.8
					C283.8,129.3,282.6,128.1,282.6,126.5z M283.1,131.6h4.7v18.8h-4.7V131.6z"/>
				<path class="st68" d="M297.2,150.3h-4.7v-18.8h4.7v2.9c1.2-1.9,3.2-3.2,5.8-3.2v5h-1.3c-2.8,0-4.5,1.1-4.5,4.7V150.3z"/>
				<path class="st68" d="M314.4,150.6c-5.5,0-9.4-3.8-9.4-9.7c0-5.9,3.9-9.7,9.4-9.7c5.4,0,9.2,3.7,9.2,9.3c0,0.6,0,1.2-0.1,1.8
					h-13.7c0.2,2.8,2.1,4.3,4.5,4.3c2,0,3.2-1,3.8-2.3h5.1C322.1,147.9,319,150.6,314.4,150.6z M309.8,139.2h8.9c-0.1-2.5-2-4-4.5-4
					C312,135.1,310.2,136.6,309.8,139.2z"/>
				<path class="st68" d="M334.5,131.2c2.5,0,4.8,1.2,6.1,2.9v-8.9h4.8v25.1h-4.8v-2.8c-1.1,1.7-3.2,3.1-6.2,3.1
					c-4.8,0-8.6-3.9-8.6-9.8S329.6,131.2,334.5,131.2z M335.6,135.4c-2.5,0-4.9,1.9-4.9,5.5s2.4,5.6,4.9,5.6c2.6,0,5-2,5-5.5
					C340.6,137.4,338.2,135.4,335.6,135.4z"/>
			</g>
		</g>
	</g>
</g>
</svg>
