<?xml version="1.0" encoding="utf-8"?>
<!-- Generator: Adobe Illustrator 25.0.0, SVG Export Plug-In . SVG Version: 6.00 Build 0)  -->
<svg version="1.1" xmlns="http://www.w3.org/2000/svg" xmlns:xlink="http://www.w3.org/1999/xlink" x="0px" y="0px"
	 viewBox="0 0 475 390" style="enable-background:new 0 0 475 390;" xml:space="preserve">
<style type="text/css">
	.st0{fill:#002D33;}
	.st1{fill:#3B1022;}
	.st2{fill:#090918;}
	.st3{fill:#101227;}
	.st4{fill:#0C2F2B;}
	.st5{fill:#0C0D0E;}
	.st6{fill:#202020;}
	.st7{fill:#005A66;}
	.st8{fill:#772044;}
	.st9{fill:#121230;}
	.st10{fill:#21244F;}
	.st11{fill:#195E57;}
	.st12{fill:#191B1C;}
	.st13{fill:#404040;}
	.st14{fill:#008698;}
	.st15{fill:#B23066;}
	.st16{fill:#1B1B48;}
	.st17{fill:#323676;}
	.st18{fill:#268C82;}
	.st19{fill:#252829;}
	.st20{fill:#605F5F;}
	.st21{fill:#00B3CB;}
	.st22{fill:#ED4088;}
	.st23{fill:#242460;}
	.st24{fill:#42489D;}
	.st25{fill:#32BBAD;}
	.st26{fill:#313537;stroke:#FFFFFF;stroke-width:0.6984;stroke-miterlimit:10;}
	.st27{fill:#807F7F;}
	.st28{fill:#33C2D5;}
	.st29{fill:#F166A0;}
	.st30{fill:#505080;}
	.st31{fill:#686DB1;}
	.st32{fill:#5BC9BD;}
	.st33{fill:#5A5D5F;}
	.st34{fill:#999999;}
	.st35{fill:#66D1E0;}
	.st36{fill:#F48CB8;}
	.st37{fill:#7C7CA0;}
	.st38{fill:#8E91C4;}
	.st39{fill:#84D6CE;}
	.st40{fill:#838687;}
	.st41{fill:#B3B2B2;}
	.st42{fill:#99E1EA;}
	.st43{fill:#F8B3CF;}
	.st44{fill:#A7A7BF;}
	.st45{fill:#B3B6D8;}
	.st46{fill:#ADE4DE;}
	.st47{fill:#ADAEAF;}
	.st48{fill:#CCCCCC;}
	.st49{fill:#CCF0F5;}
	.st50{fill:#FBD9E7;}
	.st51{fill:#D3D3DF;}
	.st52{fill:#D9DAEB;}
	.st53{fill:#D6F1EF;}
	.st54{fill:#D6D7D7;}
	.st55{fill:#E6E5E5;}
	.st56{fill:#AEE1F4;}
	.st57{fill:#86D6F4;}
	.st58{fill:#D2FAFA;}
</style>
<g id="Ice_Bg">
</g>
<g id="Chocolate_Ice">
	<rect x="-1021.19" y="-148.26" width="25.51" height="24.48"/>
	<rect x="-989.21" y="-148.26" width="25.51" height="24.48"/>
	<rect x="-957.23" y="-148.26" width="25.51" height="24.48"/>
	<rect x="-879.15" y="-148.26" width="25.51" height="24.48"/>
	<rect x="-847.18" y="-148.26" width="25.51" height="24.48"/>
	<rect x="-787.26" y="-148.26" width="25.51" height="24.48"/>
	<rect x="-755.28" y="-148.26" width="25.51" height="24.48"/>
	<rect x="-1021.19" y="-110.05" class="st0" width="25.51" height="24.48"/>
	<rect x="-989.21" y="-110.05" class="st1" width="25.51" height="24.48"/>
	<rect x="-957.23" y="-110.05" class="st2" width="25.51" height="24.48"/>
	<rect x="-879.15" y="-110.05" class="st3" width="25.51" height="24.48"/>
	<rect x="-847.18" y="-110.05" class="st4" width="25.51" height="24.48"/>
	<rect x="-787.26" y="-110.05" class="st5" width="25.51" height="24.48"/>
	<rect x="-755.28" y="-110.05" class="st6" width="25.51" height="24.48"/>
	<rect x="-1021.19" y="-71.84" class="st7" width="25.51" height="24.48"/>
	<rect x="-989.21" y="-71.84" class="st8" width="25.51" height="24.48"/>
	<rect x="-957.23" y="-71.84" class="st9" width="25.51" height="24.48"/>
	<rect x="-879.15" y="-71.84" class="st10" width="25.51" height="24.48"/>
	<rect x="-847.18" y="-71.84" class="st11" width="25.51" height="24.48"/>
	<rect x="-787.26" y="-71.84" class="st12" width="25.51" height="24.48"/>
	<rect x="-755.28" y="-71.84" class="st13" width="25.51" height="24.48"/>
	<rect x="-1021.19" y="-33.64" class="st14" width="25.51" height="24.48"/>
	<rect x="-988.97" y="-33.64" class="st15" width="25.51" height="24.48"/>
	<rect x="-957.14" y="-33.64" class="st16" width="25.51" height="24.48"/>
	<rect x="-878.4" y="-33.64" class="st17" width="25.51" height="24.48"/>
	<rect x="-845.72" y="-33.64" class="st18" width="25.51" height="24.48"/>
	<rect x="-785.93" y="-33.64" class="st19" width="25.51" height="24.48"/>
	<rect x="-755.28" y="-33.64" class="st20" width="25.51" height="24.48"/>
	<rect x="-1021.19" y="4.57" class="st21" width="25.51" height="24.48"/>
	<rect x="-988.97" y="4.57" class="st22" width="25.51" height="24.48"/>
	<rect x="-957.14" y="4.57" class="st23" width="25.51" height="24.48"/>
	<rect x="-878.4" y="4.57" class="st24" width="25.51" height="24.48"/>
	<rect x="-845.72" y="4.57" class="st25" width="25.51" height="24.48"/>
	<rect x="-785.93" y="4.57" class="st26" width="25.51" height="24.48"/>
	<rect x="-755.28" y="4.57" class="st27" width="25.51" height="24.48"/>
	<rect x="-1021.19" y="42.78" class="st28" width="25.51" height="24.48"/>
	<rect x="-988.97" y="42.78" class="st29" width="25.51" height="24.48"/>
	<rect x="-957.14" y="42.78" class="st30" width="25.51" height="24.48"/>
	<rect x="-878.4" y="42.78" class="st31" width="25.51" height="24.48"/>
	<rect x="-845.72" y="42.78" class="st32" width="25.51" height="24.48"/>
	<rect x="-785.93" y="42.78" class="st33" width="25.51" height="24.48"/>
	<rect x="-755.28" y="42.78" class="st34" width="25.51" height="24.48"/>
	<rect x="-1021.19" y="80.99" class="st35" width="25.51" height="24.48"/>
	<rect x="-988.97" y="80.99" class="st36" width="25.51" height="24.48"/>
	<rect x="-957.14" y="80.99" class="st37" width="25.51" height="24.48"/>
	<rect x="-878.4" y="80.99" class="st38" width="25.51" height="24.48"/>
	<rect x="-845.72" y="80.99" class="st39" width="25.51" height="24.48"/>
	<rect x="-785.93" y="80.99" class="st40" width="25.51" height="24.48"/>
	<rect x="-755.28" y="80.99" class="st41" width="25.51" height="24.48"/>
	<rect x="-1021.19" y="119.2" class="st42" width="25.51" height="24.48"/>
	<rect x="-988.97" y="119.2" class="st43" width="25.51" height="24.48"/>
	<rect x="-957.14" y="119.2" class="st44" width="25.51" height="24.48"/>
	<rect x="-878.4" y="119.2" class="st45" width="25.51" height="24.48"/>
	<rect x="-845.72" y="119.2" class="st46" width="25.51" height="24.48"/>
	<rect x="-785.93" y="119.2" class="st47" width="25.51" height="24.48"/>
	<rect x="-755.28" y="119.2" class="st48" width="25.51" height="24.48"/>
	<rect x="-1021.19" y="157.41" class="st49" width="25.51" height="24.48"/>
	<rect x="-988.97" y="157.41" class="st50" width="25.51" height="24.48"/>
	<rect x="-957.14" y="157.41" class="st51" width="25.51" height="24.48"/>
	<rect x="-878.4" y="157.41" class="st52" width="25.51" height="24.48"/>
	<rect x="-845.72" y="157.41" class="st53" width="25.51" height="24.48"/>
	<rect x="-785.93" y="157.41" class="st54" width="25.51" height="24.48"/>
	<rect x="-755.28" y="157.41" class="st55" width="25.51" height="24.48"/>
	<g>
		<polygon class="st21" points="-910.29,-450.64 -917.79,-450.64 -962.17,-437.6 -865.92,-437.6 		"/>
		<polygon class="st21" points="-908.58,-589.66 -918.42,-589.66 -916.18,-445.64 -910.82,-445.64 		"/>
		<path class="st14" d="M-912.58-514.08c0.95,0,1.89,0.09,2.82,0.23l1.18-75.81h-9.84l1.19,76.17
			C-915.71-513.87-914.16-514.08-912.58-514.08z"/>
		<rect x="-1062.42" y="-650.82" class="st21" width="297.83" height="4.48"/>
		<path class="st21" d="M-1033.82-548.81c9.38-2.05,66.05-10.25,106.11-8.5c0,0-33.66-24.91-67.75-21.68
			C-1029.56-575.77-1033.82-548.81-1033.82-548.81z"/>
		<path class="st21" d="M-909.38-556.72c9.83-0.22,71.53-2.45,109.39,6.72c0,0-19.5-26.93-53.59-30.19
			C-887.67-583.46-909.38-556.72-909.38-556.72z"/>
		<path class="st56" d="M-1066.13-650.33c-0.13-0.69,0.18-1.39,0.85-1.91c0.67-0.52,1.64-0.82,2.65-0.82h298.08
			c1,0,1.95,0.29,2.62,0.8c0.67,0.51,1,1.19,0.9,1.88c-2.48,16.57-16.03,104.55-24.9,105.06c-9.79,0.56-51.23-21.62-61.83-19.94
			c-10.61,1.69-47.52,11.52-75.26,9.27c-27.74-2.24-52.65-12.8-61.2-11.78c-18.77,2.25-44.07,21.32-53.86,19.64
			C-1046.91-549.66-1063.07-633.96-1066.13-650.33z"/>
		<g>
			<path class="st57" d="M-761.93-652.26c-0.67-0.51-1.63-0.8-2.62-0.8h-4.67c-0.47,38.22-22.75,72.09-57.04,93.46
				c15.62,6.04,34.18,14.62,40.32,14.27c8.87-0.51,22.42-88.48,24.91-105.06C-760.93-651.08-761.26-651.76-761.93-652.26z"/>
			<path class="st57" d="M-1054.66-653.07h-7.97c-1.01,0-1.98,0.3-2.65,0.82c-0.67,0.52-0.98,1.22-0.85,1.91
				c3.05,16.37,19.21,100.67,28.05,102.19c6.92,1.19,21.57-7.97,36.19-14.25C-1033.74-583.85-1054.21-616.47-1054.66-653.07z"/>
		</g>
		<path class="st58" d="M-1066.06-649.96c13.92,11.48,284.95,13.24,304.96,0c0.76-1.6,1.71-4.08-2.27-4.08h-300.44
			C-1067.79-654.04-1067-651.61-1066.06-649.96z"/>
		<path class="st28" d="M-844.76-571.42c-11.09,1.69-49.68,11.52-78.69,9.28c-29.01-2.24-55.06-12.81-63.99-11.78
			c-18.93,2.16-44.22,19.99-55.17,19.73c1.64,3.61,3.17,5.82,4.54,6.06c9.79,1.69,35.09-17.4,53.85-19.64
			c8.55-1.02,33.46,9.54,61.2,11.79c27.75,2.24,64.65-7.59,75.26-9.28c10.61-1.68,52.04,20.5,61.83,19.93
			c1.41-0.08,2.93-2.36,4.5-6.2C-793.61-552.59-834.09-573.04-844.76-571.42z"/>
	</g>
</g>
<g id="Yellow_ice">
	<rect class="st28" width="475" height="390"/>
</g>
</svg>
