<?xml version="1.0" encoding="utf-8"?>
<!-- Generator: Adobe Illustrator 25.0.0, SVG Export Plug-In . SVG Version: 6.00 Build 0)  -->
<svg version="1.1" id="Layer_1" xmlns="http://www.w3.org/2000/svg" xmlns:xlink="http://www.w3.org/1999/xlink" x="0px" y="0px"
	 viewBox="0 0 475 390" style="enable-background:new 0 0 475 390;" xml:space="preserve">
<style type="text/css">
	.st0{fill:#002D33;}
	.st1{fill:#3B1022;}
	.st2{fill:#090918;}
	.st3{fill:#101227;}
	.st4{fill:#0C2F2B;}
	.st5{fill:#0C0D0E;}
	.st6{fill:#202020;}
	.st7{fill:#005A66;}
	.st8{fill:#772044;}
	.st9{fill:#121230;}
	.st10{fill:#21244F;}
	.st11{fill:#195E57;}
	.st12{fill:#191B1C;}
	.st13{fill:#404040;}
	.st14{fill:#008698;}
	.st15{fill:#B23066;}
	.st16{fill:#1B1B48;}
	.st17{fill:#323676;}
	.st18{fill:#268C82;}
	.st19{fill:#252829;}
	.st20{fill:#605F5F;}
	.st21{fill:#00B3CB;}
	.st22{fill:#ED4088;}
	.st23{fill:#242460;}
	.st24{fill:#42489D;}
	.st25{fill:#32BBAD;}
	.st26{fill:#313537;stroke:#FFFFFF;stroke-width:0.6984;stroke-miterlimit:10;}
	.st27{fill:#807F7F;}
	.st28{fill:#33C2D5;}
	.st29{fill:#F166A0;}
	.st30{fill:#505080;}
	.st31{fill:#686DB1;}
	.st32{fill:#5BC9BD;}
	.st33{fill:#5A5D5F;}
	.st34{fill:#999999;}
	.st35{fill:#66D1E0;}
	.st36{fill:#F48CB8;}
	.st37{fill:#7C7CA0;}
	.st38{fill:#8E91C4;}
	.st39{fill:#84D6CE;}
	.st40{fill:#838687;}
	.st41{fill:#B3B2B2;}
	.st42{fill:#99E1EA;}
	.st43{fill:#F8B3CF;}
	.st44{fill:#A7A7BF;}
	.st45{fill:#B3B6D8;}
	.st46{fill:#ADE4DE;}
	.st47{fill:#ADAEAF;}
	.st48{fill:#CCCCCC;}
	.st49{fill:#CCF0F5;}
	.st50{fill:#FBD9E7;}
	.st51{fill:#D3D3DF;}
	.st52{fill:#D9DAEB;}
	.st53{fill:#D6F1EF;}
	.st54{fill:#D6D7D7;}
	.st55{fill:#E6E5E5;}
	.st56{fill:#AEE1F4;}
	.st57{fill:#86D6F4;}
	.st58{fill:#D2FAFA;}
	.st59{fill:#2EAEB7;}
</style>
<g id="Ice_Bg">
</g>
<g id="Chocolate_Ice">
	<rect x="-1021.2" y="-148.3" width="25.5" height="24.5"/>
	<rect x="-989.2" y="-148.3" width="25.5" height="24.5"/>
	<rect x="-957.2" y="-148.3" width="25.5" height="24.5"/>
	<rect x="-879.2" y="-148.3" width="25.5" height="24.5"/>
	<rect x="-847.2" y="-148.3" width="25.5" height="24.5"/>
	<rect x="-787.3" y="-148.3" width="25.5" height="24.5"/>
	<rect x="-755.3" y="-148.3" width="25.5" height="24.5"/>
	<rect x="-1021.2" y="-110.1" class="st0" width="25.5" height="24.5"/>
	<rect x="-989.2" y="-110.1" class="st1" width="25.5" height="24.5"/>
	<rect x="-957.2" y="-110.1" class="st2" width="25.5" height="24.5"/>
	<rect x="-879.2" y="-110.1" class="st3" width="25.5" height="24.5"/>
	<rect x="-847.2" y="-110.1" class="st4" width="25.5" height="24.5"/>
	<rect x="-787.3" y="-110.1" class="st5" width="25.5" height="24.5"/>
	<rect x="-755.3" y="-110.1" class="st6" width="25.5" height="24.5"/>
	<rect x="-1021.2" y="-71.8" class="st7" width="25.5" height="24.5"/>
	<rect x="-989.2" y="-71.8" class="st8" width="25.5" height="24.5"/>
	<rect x="-957.2" y="-71.8" class="st9" width="25.5" height="24.5"/>
	<rect x="-879.2" y="-71.8" class="st10" width="25.5" height="24.5"/>
	<rect x="-847.2" y="-71.8" class="st11" width="25.5" height="24.5"/>
	<rect x="-787.3" y="-71.8" class="st12" width="25.5" height="24.5"/>
	<rect x="-755.3" y="-71.8" class="st13" width="25.5" height="24.5"/>
	<rect x="-1021.2" y="-33.6" class="st14" width="25.5" height="24.5"/>
	<rect x="-989" y="-33.6" class="st15" width="25.5" height="24.5"/>
	<rect x="-957.1" y="-33.6" class="st16" width="25.5" height="24.5"/>
	<rect x="-878.4" y="-33.6" class="st17" width="25.5" height="24.5"/>
	<rect x="-845.7" y="-33.6" class="st18" width="25.5" height="24.5"/>
	<rect x="-785.9" y="-33.6" class="st19" width="25.5" height="24.5"/>
	<rect x="-755.3" y="-33.6" class="st20" width="25.5" height="24.5"/>
	<rect x="-1021.2" y="4.6" class="st21" width="25.5" height="24.5"/>
	<rect x="-989" y="4.6" class="st22" width="25.5" height="24.5"/>
	<rect x="-957.1" y="4.6" class="st23" width="25.5" height="24.5"/>
	<rect x="-878.4" y="4.6" class="st24" width="25.5" height="24.5"/>
	<rect x="-845.7" y="4.6" class="st25" width="25.5" height="24.5"/>
	<rect x="-785.9" y="4.6" class="st26" width="25.5" height="24.5"/>
	<rect x="-755.3" y="4.6" class="st27" width="25.5" height="24.5"/>
	<rect x="-1021.2" y="42.8" class="st28" width="25.5" height="24.5"/>
	<rect x="-989" y="42.8" class="st29" width="25.5" height="24.5"/>
	<rect x="-957.1" y="42.8" class="st30" width="25.5" height="24.5"/>
	<rect x="-878.4" y="42.8" class="st31" width="25.5" height="24.5"/>
	<rect x="-845.7" y="42.8" class="st32" width="25.5" height="24.5"/>
	<rect x="-785.9" y="42.8" class="st33" width="25.5" height="24.5"/>
	<rect x="-755.3" y="42.8" class="st34" width="25.5" height="24.5"/>
	<rect x="-1021.2" y="81" class="st35" width="25.5" height="24.5"/>
	<rect x="-989" y="81" class="st36" width="25.5" height="24.5"/>
	<rect x="-957.1" y="81" class="st37" width="25.5" height="24.5"/>
	<rect x="-878.4" y="81" class="st38" width="25.5" height="24.5"/>
	<rect x="-845.7" y="81" class="st39" width="25.5" height="24.5"/>
	<rect x="-785.9" y="81" class="st40" width="25.5" height="24.5"/>
	<rect x="-755.3" y="81" class="st41" width="25.5" height="24.5"/>
	<rect x="-1021.2" y="119.2" class="st42" width="25.5" height="24.5"/>
	<rect x="-989" y="119.2" class="st43" width="25.5" height="24.5"/>
	<rect x="-957.1" y="119.2" class="st44" width="25.5" height="24.5"/>
	<rect x="-878.4" y="119.2" class="st45" width="25.5" height="24.5"/>
	<rect x="-845.7" y="119.2" class="st46" width="25.5" height="24.5"/>
	<rect x="-785.9" y="119.2" class="st47" width="25.5" height="24.5"/>
	<rect x="-755.3" y="119.2" class="st48" width="25.5" height="24.5"/>
	<rect x="-1021.2" y="157.4" class="st49" width="25.5" height="24.5"/>
	<rect x="-989" y="157.4" class="st50" width="25.5" height="24.5"/>
	<rect x="-957.1" y="157.4" class="st51" width="25.5" height="24.5"/>
	<rect x="-878.4" y="157.4" class="st52" width="25.5" height="24.5"/>
	<rect x="-845.7" y="157.4" class="st53" width="25.5" height="24.5"/>
	<rect x="-785.9" y="157.4" class="st54" width="25.5" height="24.5"/>
	<rect x="-755.3" y="157.4" class="st55" width="25.5" height="24.5"/>
	<g>
		<polygon class="st21" points="-910.3,-450.6 -917.8,-450.6 -962.2,-437.6 -865.9,-437.6 		"/>
		<polygon class="st21" points="-908.6,-589.7 -918.4,-589.7 -916.2,-445.6 -910.8,-445.6 		"/>
		<path class="st14" d="M-912.6-514.1c1,0,1.9,0.1,2.8,0.2l1.2-75.8h-9.8l1.2,76.2C-915.7-513.9-914.2-514.1-912.6-514.1z"/>
		<rect x="-1062.4" y="-650.8" class="st21" width="297.8" height="4.5"/>
		<path class="st21" d="M-1033.8-548.8c9.4-2,66-10.2,106.1-8.5c0,0-33.7-24.9-67.8-21.7C-1029.6-575.8-1033.8-548.8-1033.8-548.8z"
			/>
		<path class="st21" d="M-909.4-556.7c9.8-0.2,71.5-2.5,109.4,6.7c0,0-19.5-26.9-53.6-30.2C-887.7-583.5-909.4-556.7-909.4-556.7z"
			/>
		<path class="st56" d="M-1066.1-650.3c-0.1-0.7,0.2-1.4,0.8-1.9c0.7-0.5,1.6-0.8,2.7-0.8h298.1c1,0,2,0.3,2.6,0.8s1,1.2,0.9,1.9
			c-2.5,16.6-16,104.5-24.9,105.1c-9.8,0.6-51.2-21.6-61.8-19.9c-10.6,1.7-47.5,11.5-75.3,9.3c-27.7-2.2-52.7-12.8-61.2-11.8
			c-18.8,2.2-44.1,21.3-53.9,19.6C-1046.9-549.7-1063.1-634-1066.1-650.3z"/>
		<g>
			<path class="st57" d="M-761.9-652.3c-0.7-0.5-1.6-0.8-2.6-0.8h-4.7c-0.5,38.2-22.8,72.1-57,93.5c15.6,6,34.2,14.6,40.3,14.3
				c8.9-0.5,22.4-88.5,24.9-105.1C-760.9-651.1-761.3-651.8-761.9-652.3z"/>
			<path class="st57" d="M-1054.7-653.1h-8c-1,0-2,0.3-2.7,0.8s-1,1.2-0.8,1.9c3.1,16.4,19.2,100.7,28.1,102.2
				c6.9,1.2,21.6-8,36.2-14.2C-1033.7-583.8-1054.2-616.5-1054.7-653.1z"/>
		</g>
		<path class="st58" d="M-1066.1-650c13.9,11.5,285,13.2,305,0c0.8-1.6,1.7-4.1-2.3-4.1h-300.4C-1067.8-654-1067-651.6-1066.1-650z"
			/>
		<path class="st28" d="M-844.8-571.4c-11.1,1.7-49.7,11.5-78.7,9.3s-55.1-12.8-64-11.8c-18.9,2.2-44.2,20-55.2,19.7
			c1.6,3.6,3.2,5.8,4.5,6.1c9.8,1.7,35.1-17.4,53.8-19.6c8.5-1,33.5,9.5,61.2,11.8c27.8,2.2,64.7-7.6,75.3-9.3
			c10.6-1.7,52,20.5,61.8,19.9c1.4-0.1,2.9-2.4,4.5-6.2C-793.6-552.6-834.1-573-844.8-571.4z"/>
	</g>
</g>
<g id="Yellow_ice">
	<rect class="st28" width="475" height="390"/>
</g>
<g id="Yellow_ice_1_">
	<g>
		<g>
			<g>
				<path class="st59" d="M331.4,344.4l-0.1-0.1l-79.8-54.5l-29.7-9.1l-27.8,23.2h-0.1l-50.7-2.1L81.6,299l-9.1-6.5l-30.5-49.8v-0.1
					l2.3-64.9l0-0.1c3.3-5.3,31.9-51.8,35.5-52.1c0.2,0,0.3,0,0.4,0.2c0,0,0,0,0.1,0c3.4,0,54.6-38.9,88.4-65.3l0.1,0l91-16.2l0.1,0
					L357,80.7l0,0l61.1,68.4l0,0.1l13.4,53.5l0,0.1L413.8,250l-0.1,0l-14.5,2.4l-17.3,28.6l-0.1,0l-27.7,3.7l-8.4,1.4l-7.8,16.1
					l13.3,21.5l8.8,8.5L331.4,344.4z M221.6,280.1l0.1,0l29.9,9.2l79.8,54.5l27.6-11.6l-8.3-8l-13.5-21.8l8-16.6l8.7-1.5l27.6-3.7
					l17.3-28.6l0.1,0l14.5-2.4l17.6-46.9l-13.4-53.3l-61-68.2l-97-36.6l-90.8,16.2c-1.2,0.9-22.4,17.5-43.5,33.5
					c-44.1,33.4-45.1,32.2-45.6,31.7c0,0,0,0,0,0c-2.3,0-22.6,31.7-35,51.8l-2.3,64.7l30.4,49.6l8.9,6.3l61.4,2.9l50.6,2
					L221.6,280.1z"/>
				<polygon class="st59" points="193.6,303.8 151.6,237.5 106.4,189.6 48.8,174.6 48.9,174.1 106.7,189.2 106.7,189.2 152,237.2 
					194.1,303.5 				"/>
				<polygon class="st59" points="381.6,281 329.7,235.9 260.2,190.1 220.7,144.6 168.5,60.6 168.9,60.4 221.1,144.3 260.6,189.7 
					330.1,235.4 381.9,280.6 				"/>
				<polygon class="st59" points="413.7,246.4 333.7,175 280.9,98.2 259.4,44.4 259.9,44.2 281.4,98 334,174.7 414.1,246 				"/>
				<polygon class="st59" points="42.3,242.8 42,242.4 106.3,189.2 149.3,129.9 170.3,60.9 170.8,61.1 149.8,130.1 149.8,130.1 
					106.7,189.6 				"/>
				
					<rect x="114.5" y="194.5" transform="matrix(0.3957 -0.9184 0.9184 0.3957 -180.742 270.0224)" class="st59" width="0.5" height="155.6"/>
				
					<rect x="294.8" y="-23.6" transform="matrix(0.3678 -0.9299 0.9299 0.3678 84.0189 344.1467)" class="st59" width="0.5" height="267.8"/>
				
					<rect x="111.7" y="120.3" transform="matrix(0.9425 -0.3342 0.3342 0.9425 -64.9663 49.6906)" class="st59" width="0.5" height="186.7"/>
				
					<rect x="35.4" y="242.9" transform="matrix(0.2713 -0.9625 0.9625 0.2713 -167.5411 265.0911)" class="st59" width="111.8" height="0.5"/>
				<polygon class="st59" points="154.6,242.4 154.1,242.2 183.8,177 183.8,177 220.7,144.3 272.7,101 291.3,93.5 356.8,80.7 
					356.9,81.2 291.5,94 272.9,101.5 221,144.7 184.2,177.4 				"/>
				<polygon class="st59" points="214.4,285.3 151,237.2 243.1,235 262.3,192.1 281.6,96.8 281.8,96.8 355.1,80.9 355.2,81.4 
					282.1,97.3 262.8,192.2 243.5,235.5 152.5,237.6 214.7,284.9 				"/>
				<polygon class="st59" points="213.6,286.4 213.2,286.1 243.5,234.4 247.5,284.6 288.2,276.9 332.4,240.2 431.2,202.4 
					431.4,202.9 332.6,240.7 288.4,277.4 247,285.3 247,285 243.1,236.1 				"/>
				<polygon class="st59" points="298.9,320.4 265.6,191.5 265.8,191.4 412,156.1 412.1,156.6 266.2,191.8 299.4,320.3 				"/>
				<polygon class="st59" points="345.3,286.1 332.2,240.5 332.2,240.5 335,175.5 356.5,80.9 357.1,81 335.5,175.6 332.8,240.5 
					345.8,286 				"/>
				
					<rect x="368.4" y="213.8" transform="matrix(0.2312 -0.9729 0.9729 0.2312 45.0348 547.02)" class="st59" width="0.5" height="62.5"/>
				<path class="st59" d="M221.4,144.8l-0.6-0.1L148.6,130l53.6-19L221.4,144.8z M150.5,129.9l69.8,14.2l-18.4-32.5L150.5,129.9z"/>
				
					<rect x="201.4" y="103.9" transform="matrix(0.9833 -0.1822 0.1822 0.9833 -14.9348 45.659)" class="st59" width="79.3" height="0.5"/>
				<polygon class="st59" points="331.7,344.1 331.2,344 337.4,302.5 288.1,277.3 183.8,177.4 149.4,130.2 79.9,126.1 79.9,125.5 
					149.7,129.7 149.8,129.8 184.2,177 288.5,276.9 337.9,302.2 337.9,302.4 				"/>
				<path class="st59" d="M333.2,327.3l-34.9-6.8l39.7-18.6L333.2,327.3z M300,320.3l32.8,6.4l4.5-23.9L300,320.3z"/>
				
					<rect x="346" y="316.1" transform="matrix(0.1947 -0.9809 0.9809 0.1947 -44.4287 605.1104)" class="st59" width="0.5" height="27"/>
				<path class="st59" d="M384.9,221.4l-0.1-0.1l-50.6-46.4l68.6,20.8l5.5,1.2l12-35.7l-13.9-5.5l0.2-0.5l14.4,5.7l-0.1,0.2
					l-12.1,35.8l21,4.7l-0.1,0.5l-21.1-4.7l-5.5,16.2L384.9,221.4z M336.3,176.1l48.7,44.7l17.9-7.4l5.4-15.9l-5.5-1.2L336.3,176.1z
					"/>
			</g>
		</g>
		<g>
			<g>
				<path class="st59" d="M81.8,294.1c0.6,3.8-1.9,7.4-5.7,8c-3.8,0.6-7.4-1.9-8-5.7c-0.7-3.8,1.9-7.3,5.6-8
					C77.5,287.7,81.1,290.3,81.8,294.1z"/>
				<path class="st59" d="M74.9,302.4c-1.5,0-3-0.5-4.2-1.4c-1.5-1.1-2.5-2.8-2.8-4.6c-0.3-1.8,0-3.7,1.1-5.2c1.1-1.6,2.8-2.7,4.7-3
					c3.9-0.6,7.6,2,8.3,5.9l0,0c0.3,1.9-0.1,3.8-1.2,5.3s-2.8,2.6-4.6,2.9C75.7,302.3,75.3,302.4,74.9,302.4z M74.9,288.5
					c-0.4,0-0.7,0-1.1,0.1c-1.8,0.3-3.4,1.4-4.4,2.8c-1,1.5-1.4,3.2-1,4.9c0.3,1.8,1.2,3.3,2.6,4.4c1.5,1.1,3.3,1.5,5.1,1.2
					c1.8-0.3,3.3-1.3,4.4-2.7s1.5-3.2,1.2-5C81,290.8,78.1,288.5,74.9,288.5z"/>
			</g>
			<g>
				<path class="st59" d="M151.1,300.2c0.6,3.8-1.9,7.4-5.7,8.1c-3.8,0.6-7.3-1.9-8-5.7c-0.6-3.8,1.9-7.4,5.7-8.1
					C146.8,293.9,150.4,296.5,151.1,300.2z"/>
				<path class="st59" d="M144.2,308.6c-3.4,0-6.4-2.5-7.1-6c-0.6-4,2-7.6,5.9-8.3c3.9-0.6,7.6,2,8.3,5.9l0,0c0.7,3.9-2,7.6-5.9,8.3
					C145,308.6,144.6,308.6,144.2,308.6z M144.2,294.7c-0.4,0-0.7,0-1.1,0.1c-3.7,0.6-6.1,4.1-5.5,7.8c0.7,3.7,4.1,6.1,7.7,5.5
					c3.7-0.6,6.2-4.1,5.6-7.8C150.3,297,147.4,294.7,144.2,294.7z"/>
			</g>
			<g>
				<path class="st59" d="M198.1,301.2c0.7,3.8-1.9,7.4-5.7,8c-3.7,0.7-7.3-1.9-8-5.7c-0.6-3.7,1.9-7.4,5.7-8
					C193.8,294.9,197.4,297.4,198.1,301.2z"/>
				<path class="st59" d="M191.2,309.5c-3.4,0-6.4-2.5-7.1-6c-0.6-3.8,2.1-7.6,5.9-8.2c3.9-0.6,7.6,2,8.3,5.9l0,0
					c0.3,1.9-0.1,3.7-1.2,5.3c-1.1,1.6-2.8,2.7-4.7,3C192,309.5,191.6,309.5,191.2,309.5z M191.1,295.6c-0.3,0-0.7,0-1,0.1
					c-3.6,0.6-6.1,4.1-5.5,7.7c0.7,3.7,4.2,6.2,7.8,5.6c1.8-0.3,3.4-1.3,4.5-2.8c1-1.5,1.4-3.2,1.1-5l0,0
					C197.2,298,194.3,295.6,191.1,295.6z"/>
			</g>
			<g>
				<path class="st59" d="M222.5,283.8c0.6,3.8-1.9,7.4-5.7,8c-3.8,0.6-7.4-2-8-5.8c-0.6-3.8,1.9-7.3,5.7-8
					C218.3,277.5,221.9,280,222.5,283.8z"/>
				<path class="st59" d="M215.7,292.1c-3.5,0-6.6-2.5-7.1-6c-0.6-3.9,1.9-7.5,5.8-8.2c1.9-0.3,3.9,0.1,5.5,1.3
					c1.5,1.1,2.6,2.8,2.8,4.6c0.3,1.9-0.1,3.8-1.2,5.4c-1.1,1.6-2.8,2.6-4.6,2.9C216.5,292.1,216.1,292.1,215.7,292.1z M215.6,278.2
					c-0.4,0-0.8,0-1.1,0.1c-3.7,0.7-6.1,4.1-5.5,7.7c0.6,3.7,4.1,6.2,7.8,5.6c1.8-0.3,3.3-1.3,4.4-2.7c1.1-1.5,1.4-3.3,1.1-5.1l0,0
					c-0.3-1.7-1.2-3.2-2.6-4.3C218.5,278.7,217,278.2,215.6,278.2z"/>
			</g>
			<g>
				<path class="st59" d="M255.2,283.6c0.6,3.8-1.9,7.4-5.7,8c-3.8,0.7-7.4-1.9-8-5.6c-0.7-3.8,1.8-7.5,5.6-8
					C251,277.2,254.5,279.8,255.2,283.6z"/>
				<path class="st59" d="M248.2,291.9c-1.5,0-2.9-0.4-4.1-1.3c-1.5-1.1-2.5-2.7-2.8-4.6c-0.3-2,0.1-3.9,1.2-5.5
					c1.1-1.5,2.7-2.5,4.6-2.8c1.9-0.3,3.8,0.1,5.4,1.2c1.6,1.1,2.6,2.8,2.9,4.7l0,0c0.3,1.9-0.1,3.8-1.3,5.4
					c-1.1,1.5-2.7,2.5-4.6,2.8C249.1,291.9,248.7,291.9,248.2,291.9z M248.4,278c-0.4,0-0.8,0-1.2,0.1c-1.7,0.3-3.3,1.2-4.3,2.6
					c-1.1,1.5-1.5,3.3-1.2,5.2c0.3,1.7,1.2,3.2,2.6,4.3c1.5,1.1,3.3,1.5,5.1,1.1c1.7-0.3,3.2-1.2,4.3-2.6c1.1-1.5,1.5-3.3,1.2-5.1
					l0,0c-0.3-1.8-1.3-3.4-2.7-4.4C251.1,278.5,249.8,278,248.4,278z"/>
			</g>
			<g>
				<path class="st59" d="M307.7,317.2c0.6,3.8-1.9,7.4-5.7,8c-3.9,0.6-7.4-2-8-5.7c-0.7-3.8,1.9-7.4,5.7-8
					C303.4,310.8,307.1,313.4,307.7,317.2z"/>
				<path class="st59" d="M300.9,325.5c-3.5,0-6.5-2.5-7.1-6c-0.3-1.9,0.1-3.8,1.2-5.4c1.1-1.5,2.8-2.6,4.6-2.9
					c1.9-0.3,3.8,0.1,5.4,1.2c1.6,1.1,2.6,2.8,2.9,4.7l0,0c0.6,3.9-2,7.6-5.9,8.3C301.6,325.5,301.2,325.5,300.9,325.5z
					 M300.9,311.6c-0.4,0-0.8,0-1.2,0.1c-1.8,0.3-3.3,1.2-4.3,2.7c-1,1.5-1.5,3.2-1.1,5c0.6,3.7,4,6.1,7.8,5.5
					c3.6-0.6,6.1-4.1,5.5-7.8c-0.3-1.8-1.3-3.3-2.8-4.4C303.6,312,302.2,311.6,300.9,311.6z"/>
			</g>
			<g>
				<path class="st59" d="M336.4,344.8c0.6,3.8-1.9,7.4-5.8,8c-3.7,0.6-7.4-1.9-7.9-5.7c-0.7-3.8,1.9-7.4,5.6-8
					C332.1,338.4,335.7,341,336.4,344.8z"/>
				<path class="st59" d="M329.5,353.1c-1.5,0-3-0.5-4.2-1.4c-1.5-1.1-2.5-2.8-2.8-4.6c-0.4-1.9,0.1-3.7,1.1-5.3
					c1.1-1.6,2.8-2.6,4.6-2.9c3.9-0.7,7.6,1.9,8.3,5.8l0,0c0.3,1.9-0.1,3.8-1.2,5.4c-1.1,1.5-2.8,2.6-4.7,2.9
					C330.3,353.1,329.9,353.1,329.5,353.1z M329.6,339.2c-0.4,0-0.8,0-1.2,0.1c-1.8,0.3-3.3,1.2-4.4,2.7c-1,1.5-1.4,3.2-1.1,5
					c0.3,1.8,1.2,3.3,2.6,4.4c1.5,1,3.3,1.5,5,1.2c1.8-0.3,3.4-1.3,4.4-2.7s1.5-3.2,1.2-5C335.6,341.6,332.8,339.2,329.6,339.2z"/>
			</g>
			<g>
				<path class="st59" d="M365.3,331.3c0.6,3.8-1.9,7.3-5.8,8c-3.8,0.7-7.4-1.9-8-5.7c-0.6-3.8,1.9-7.4,5.7-8
					C361,325,364.6,327.6,365.3,331.3z"/>
				<path class="st59" d="M358.3,339.6c-1.5,0-2.9-0.5-4.1-1.3c-1.6-1.1-2.6-2.8-2.9-4.7s0.1-3.8,1.3-5.4c1.1-1.6,2.8-2.6,4.7-2.9
					c3.9-0.6,7.6,2,8.3,5.9l0,0c0.6,3.9-2,7.6-5.9,8.3C359.2,339.6,358.8,339.6,358.3,339.6z M358.4,325.7c-0.4,0-0.7,0-1.1,0.1
					c-1.8,0.3-3.3,1.2-4.4,2.7c-1.1,1.5-1.5,3.3-1.2,5.1c0.3,1.8,1.3,3.4,2.8,4.4c1.5,1,3.2,1.4,5,1.1c3.7-0.7,6.2-4.1,5.6-7.8
					C364.5,328,361.6,325.7,358.4,325.7z"/>
			</g>
			<g>
				<path class="st59" d="M343,301.3c0.6,3.7-2,7.3-5.7,8c-3.8,0.6-7.4-1.9-8-5.7c-0.6-3.8,1.9-7.4,5.7-8
					C338.8,294.9,342.4,297.5,343,301.3z"/>
				<path class="st59" d="M336.2,309.6c-3.5,0-6.5-2.5-7.1-6c-0.6-4,1.9-7.6,5.9-8.3c4-0.6,7.7,2,8.3,5.9l0,0c0.6,3.9-2,7.6-5.9,8.2
					C336.9,309.6,336.6,309.6,336.2,309.6z M336.1,295.7c-0.4,0-0.8,0-1.1,0.1c-3.7,0.7-6.1,4.1-5.5,7.8c0.6,3.6,4.1,6.1,7.8,5.5
					c3.6-0.6,6.1-4.1,5.5-7.7C342.2,298,339.4,295.7,336.1,295.7z"/>
			</g>
			<g>
				<path class="st59" d="M389.7,279.5c0.6,3.8-1.9,7.4-5.8,8c-3.8,0.6-7.3-1.9-8-5.7c-0.6-3.8,1.9-7.4,5.7-8
					C385.5,273.1,389,275.7,389.7,279.5z"/>
				<path class="st59" d="M382.8,287.8c-3.5,0-6.5-2.4-7.1-6c-0.6-3.9,2-7.6,5.9-8.3c3.9-0.6,7.6,2,8.3,5.9l0,0c0.6,4-2,7.6-5.9,8.3
					C383.6,287.8,383.2,287.8,382.8,287.8z M382.8,273.9c-0.4,0-0.7,0-1.1,0.1c-3.6,0.6-6.1,4.1-5.5,7.8c0.6,3.7,4,6.1,7.7,5.5
					c3.7-0.6,6.2-4,5.6-7.8C388.9,276.2,386,273.9,382.8,273.9z"/>
			</g>
			<g>
				<path class="st59" d="M419.9,246.5c0.6,3.8-1.9,7.4-5.8,8c-3.7,0.7-7.3-1.9-8-5.6c-0.7-3.9,1.9-7.4,5.7-8
					C415.7,240.2,419.3,242.8,419.9,246.5z"/>
				<path class="st59" d="M413,254.8c-3.4,0-6.4-2.4-7-5.9c-0.3-2,0.1-3.9,1.2-5.5c1.1-1.5,2.8-2.5,4.6-2.8c1.9-0.4,3.8,0.1,5.4,1.2
					s2.6,2.8,2.9,4.6l0,0c0.6,4-2,7.6-5.9,8.3C413.8,254.8,413.4,254.8,413,254.8z M413.2,241c-0.4,0-0.8,0-1.2,0.1
					c-1.8,0.3-3.3,1.2-4.3,2.6c-1.1,1.5-1.5,3.3-1.2,5.1c0.7,3.6,4.1,6.1,7.7,5.4c3.7-0.6,6.2-4,5.6-7.8c-0.3-1.8-1.2-3.3-2.7-4.3
					C415.8,241.4,414.5,241,413.2,241z"/>
			</g>
			<g>
				<path class="st59" d="M437.8,200.6c0.6,3.8-1.9,7.4-5.7,8.1c-3.8,0.6-7.4-1.9-8-5.7c-0.6-3.8,1.9-7.4,5.7-8
					C433.5,194.4,437.2,196.8,437.8,200.6z"/>
				<path class="st59" d="M431,209c-3.5,0-6.5-2.5-7.1-6c-0.6-3.9,2-7.6,5.8-8.2c2-0.3,3.9,0.1,5.5,1.3c1.5,1.1,2.5,2.7,2.8,4.5l0,0
					c0.6,4-1.9,7.7-5.8,8.3C431.8,209,431.4,209,431,209z M430.9,195.1c-0.4,0-0.8,0-1.1,0.1c-3.6,0.6-6.1,4.1-5.5,7.7
					c0.6,3.6,4.1,6.1,7.8,5.6c3.7-0.6,6.1-4.1,5.5-7.8l0,0c-0.3-1.7-1.2-3.2-2.6-4.2C433.7,195.5,432.3,195.1,430.9,195.1z"/>
			</g>
			<g>
				<path class="st59" d="M425.6,154.8c0.7,3.8-1.9,7.3-5.6,8c-3.9,0.6-7.4-1.9-8.1-5.7c-0.6-3.8,1.9-7.3,5.7-8
					C421.4,148.4,424.9,151,425.6,154.8z"/>
				<path class="st59" d="M418.8,163.1c-3.5,0-6.5-2.5-7.1-6c-0.6-3.9,2-7.6,5.9-8.3c1.9-0.3,3.8,0.1,5.3,1.2
					c1.5,1.1,2.6,2.8,2.9,4.7c0.4,1.8,0,3.7-1.1,5.2c-1.1,1.6-2.8,2.7-4.7,3C419.6,163.1,419.2,163.1,418.8,163.1z M418.8,149.2
					c-0.4,0-0.7,0-1.1,0.1c-3.7,0.6-6.1,4.1-5.6,7.8c0.6,3.7,4.1,6.1,7.8,5.6c1.8-0.3,3.4-1.3,4.4-2.8c1-1.4,1.4-3.2,1-4.9v0
					c-0.3-1.8-1.2-3.3-2.7-4.4C421.5,149.6,420.2,149.2,418.8,149.2z"/>
			</g>
			<g>
				<path class="st59" d="M364.8,79.5c0.6,3.8-2,7.4-5.7,8.1c-3.8,0.6-7.4-1.9-8-5.7c-0.6-3.8,1.9-7.4,5.7-8
					C360.6,73.2,364.1,75.8,364.8,79.5z"/>
				<path class="st59" d="M357.9,87.9c-1.5,0-3-0.5-4.2-1.3c-1.5-1.1-2.5-2.7-2.8-4.6c-0.3-1.9,0.1-3.9,1.3-5.4
					c1.1-1.5,2.8-2.6,4.6-2.8c1.8-0.3,3.7,0.1,5.3,1.2c1.6,1.1,2.6,2.8,3,4.7l0,0c0.6,3.9-2,7.7-5.9,8.3
					C358.7,87.8,358.3,87.9,357.9,87.9z M358,74c-0.4,0-0.8,0-1.2,0.1c-1.8,0.3-3.3,1.2-4.4,2.7c-1.1,1.5-1.5,3.3-1.2,5.1
					c0.3,1.8,1.2,3.3,2.7,4.3c1.5,1,3.3,1.5,5.1,1.2c3.7-0.6,6.2-4.1,5.5-7.8c-0.3-1.8-1.3-3.3-2.8-4.4C360.7,74.4,359.3,74,358,74z
					"/>
			</g>
			<g>
				<path class="st59" d="M267.6,42.9c0.6,3.8-2,7.4-5.8,8c-3.8,0.7-7.3-1.9-7.9-5.7c-0.6-3.8,1.9-7.4,5.7-8.1
					C263.4,36.6,267,39.2,267.6,42.9z"/>
				<path class="st59" d="M260.6,51.2c-1.4,0-2.9-0.4-4-1.3c-1.6-1.1-2.6-2.8-2.9-4.7c-0.7-3.9,1.9-7.6,5.8-8.3
					c3.9-0.6,7.7,2,8.3,5.9l0,0c0.3,1.9-0.1,3.8-1.3,5.4c-1.1,1.6-2.8,2.6-4.7,2.9C261.5,51.2,261.1,51.2,260.6,51.2z M260.7,37.3
					c-0.4,0-0.7,0-1.1,0.1c-3.6,0.7-6.1,4.2-5.5,7.8c0.3,1.8,1.3,3.3,2.7,4.4c1.4,1,3.2,1.4,5,1.1c1.8-0.3,3.3-1.2,4.4-2.7
					c1.1-1.5,1.5-3.2,1.2-5l0,0C266.8,39.7,263.9,37.3,260.7,37.3z"/>
			</g>
			<g>
				<path class="st59" d="M178,58c0.6,3.8-1.9,7.4-5.7,8c-3.7,0.7-7.4-1.9-8-5.7c-0.7-3.8,1.9-7.4,5.6-8
					C173.8,51.7,177.4,54.2,178,58z"/>
				<path class="st59" d="M171.1,66.4c-1.4,0-2.8-0.4-4-1.3c-1.6-1.1-2.6-2.8-2.9-4.7c-0.3-1.9,0.1-3.8,1.2-5.3
					c1.1-1.6,2.7-2.6,4.6-2.9c3.9-0.6,7.7,2,8.4,5.9l0,0c0.6,3.9-2,7.6-5.9,8.3C171.9,66.3,171.5,66.4,171.1,66.4z M171,52.4
					c-0.4,0-0.7,0-1.1,0.1c-1.7,0.3-3.3,1.3-4.3,2.8c-1,1.5-1.4,3.3-1.1,5c0.3,1.8,1.3,3.3,2.8,4.4c1.5,1,3.2,1.4,5,1.1
					c3.6-0.6,6.1-4.1,5.5-7.8C177.3,54.8,174.3,52.4,171,52.4z"/>
			</g>
			<g>
				<path class="st59" d="M89.2,123.4c0.7,3.8-1.9,7.4-5.7,8.1c-3.8,0.6-7.3-1.9-8-5.7c-0.6-3.8,2-7.4,5.7-8.1
					C85,117.1,88.6,119.6,89.2,123.4z"/>
				<path class="st59" d="M82.4,131.7c-3.5,0-6.5-2.5-7.2-6c-0.6-3.9,2-7.6,5.9-8.3c1.9-0.3,3.9,0.2,5.5,1.4
					c1.5,1.1,2.5,2.7,2.8,4.6c0.7,3.9-1.9,7.6-5.8,8.3C83.2,131.7,82.8,131.7,82.4,131.7z M82.2,117.8c-0.3,0-0.7,0-1,0.1
					c-3.6,0.6-6.1,4.1-5.5,7.8c0.7,3.7,4.1,6.1,7.8,5.6c3.7-0.7,6.1-4.2,5.5-7.8v0c-0.2-1.7-1.2-3.2-2.6-4.3
					C85.2,118.3,83.7,117.8,82.2,117.8z"/>
			</g>
			<g>
				<path class="st59" d="M56.7,173c0.7,3.8-1.8,7.4-5.6,8.1c-3.8,0.7-7.4-1.9-8-5.7c-0.6-3.8,1.9-7.4,5.7-8
					C52.5,166.7,56.1,169.2,56.7,173z"/>
				<path class="st59" d="M49.8,181.4c-1.4,0-2.9-0.4-4.1-1.3c-1.6-1.1-2.6-2.8-3-4.7c-0.6-4,2-7.7,5.9-8.3c1.9-0.3,3.8,0.1,5.3,1.2
					c1.5,1.1,2.5,2.8,2.8,4.6c0.3,1.9-0.1,3.9-1.2,5.4c-1.1,1.6-2.7,2.6-4.6,2.9C50.7,181.4,50.2,181.4,49.8,181.4z M49.9,167.5
					c-0.4,0-0.8,0-1.1,0.1c-3.6,0.6-6.1,4.1-5.6,7.8c0.3,1.8,1.3,3.3,2.8,4.4c1.5,1,3.3,1.4,5,1.1c1.8-0.3,3.3-1.2,4.3-2.7
					c1.1-1.5,1.5-3.3,1.1-5.1v0c-0.3-1.8-1.2-3.3-2.7-4.3C52.6,167.9,51.3,167.5,49.9,167.5z"/>
			</g>
			<g>
				<path class="st59" d="M51,241c0.6,3.8-2,7.4-5.8,8c-3.8,0.6-7.4-1.9-8-5.7c-0.7-3.8,1.9-7.3,5.7-8C46.7,234.6,50.3,237.2,51,241
					z"/>
				<path class="st59" d="M44.1,249.3c-1.5,0-2.9-0.5-4.2-1.4c-1.5-1.1-2.6-2.8-2.9-4.6c-0.3-1.8,0.1-3.7,1.1-5.2
					c1.1-1.6,2.8-2.7,4.7-3c3.9-0.7,7.6,1.9,8.4,5.9v0c0.6,3.9-2.1,7.6-6,8.2C44.9,249.2,44.5,249.3,44.1,249.3z M44.1,235.4
					c-0.4,0-0.8,0-1.2,0.1c-1.8,0.3-3.4,1.3-4.4,2.8c-1,1.4-1.4,3.2-1.1,4.9c0.3,1.8,1.2,3.3,2.7,4.4c1.5,1.1,3.2,1.5,5,1.2
					c3.7-0.6,6.2-4.1,5.6-7.7C50.1,237.7,47.3,235.4,44.1,235.4z"/>
			</g>
			<g>
				<path class="st59" d="M159.6,236.1c0.7,3.8-1.9,7.4-5.7,8c-3.8,0.7-7.4-1.9-7.9-5.7c-0.7-3.7,1.8-7.4,5.7-7.9
					C155.4,229.7,159,232.3,159.6,236.1z"/>
				<path class="st59" d="M152.8,244.4c-1.5,0-2.9-0.5-4.1-1.3c-1.6-1.1-2.6-2.8-2.9-4.7c-0.4-1.9,0.1-3.8,1.2-5.3
					c1.1-1.6,2.8-2.6,4.7-2.9c1.8-0.3,3.7,0.1,5.3,1.2c1.6,1.1,2.6,2.8,2.9,4.7c0.3,1.9-0.1,3.8-1.2,5.3c-1.1,1.6-2.8,2.6-4.6,2.9
					C153.6,244.4,153.2,244.4,152.8,244.4z M152.9,230.5c-0.4,0-0.8,0-1.1,0.1c-1.8,0.3-3.4,1.2-4.4,2.7c-1,1.5-1.4,3.2-1.1,5
					c0.3,1.8,1.2,3.4,2.7,4.4c1.5,1.1,3.2,1.5,5,1.1c1.8-0.3,3.3-1.3,4.4-2.8c1-1.5,1.4-3.2,1.1-5l0,0c-0.3-1.8-1.2-3.3-2.7-4.4
					C155.6,230.9,154.2,230.5,152.9,230.5z"/>
			</g>
			<g>
				<path class="st59" d="M189.8,175.4c0.7,3.7-1.9,7.3-5.6,8c-3.8,0.6-7.5-1.9-8-5.7c-0.7-3.8,1.9-7.3,5.6-7.9
					C185.6,169,189.2,171.5,189.8,175.4z"/>
				<path class="st59" d="M183.1,183.6c-1.5,0-3.1-0.5-4.3-1.4c-1.5-1.1-2.5-2.8-2.8-4.6c-0.3-1.9,0.1-3.8,1.2-5.3s2.8-2.6,4.6-2.9
					c1.9-0.3,3.8,0.1,5.4,1.2c1.6,1.1,2.6,2.8,2.9,4.7c0.3,1.9-0.1,3.7-1.2,5.3c-1.1,1.6-2.7,2.6-4.6,2.9
					C183.9,183.6,183.5,183.6,183.1,183.6z M183,169.8c-0.4,0-0.8,0-1.2,0.1c-1.8,0.3-3.3,1.2-4.4,2.7s-1.4,3.2-1.1,5
					c0.2,1.7,1.2,3.3,2.6,4.3c1.5,1.1,3.4,1.5,5.2,1.2c1.8-0.3,3.3-1.3,4.3-2.7c1-1.5,1.4-3.2,1.1-5l0,0c-0.3-1.8-1.2-3.4-2.7-4.4
					C185.8,170.2,184.4,169.8,183,169.8z"/>
			</g>
			<g>
				<path class="st59" d="M228.9,143.1c0.6,3.7-1.9,7.3-5.8,8c-3.8,0.7-7.3-1.9-8-5.7c-0.6-3.8,2-7.4,5.7-8
					C224.6,136.8,228.2,139.4,228.9,143.1z"/>
				<path class="st59" d="M221.9,151.4c-3.4,0-6.4-2.4-7.1-6c-0.6-3.9,2-7.6,5.9-8.3c4-0.6,7.6,2,8.3,5.9l0,0c0.6,3.9-2,7.6-5.9,8.2
					C222.7,151.4,222.3,151.4,221.9,151.4z M221.9,137.6c-0.4,0-0.7,0-1.1,0.1c-3.7,0.6-6.1,4.1-5.5,7.8c0.7,3.7,4.1,6.1,7.8,5.5
					c3.7-0.6,6.2-4.1,5.6-7.7C228.1,139.9,225.2,137.6,221.9,137.6z"/>
			</g>
			<g>
				<path class="st59" d="M286.7,97.4c0.7,3.7-1.9,7.4-5.6,7.9c-3.8,0.7-7.4-1.9-8.1-5.7c-0.6-3.8,1.9-7.3,5.7-8
					C282.5,91,286.1,93.6,286.7,97.4z"/>
				<path class="st59" d="M279.9,105.7c-3.4,0-6.5-2.5-7.1-5.9c-0.6-3.9,2-7.6,5.9-8.2c1.9-0.3,3.8,0.1,5.4,1.2
					c1.6,1.1,2.6,2.8,2.9,4.7c0.3,1.8-0.1,3.8-1.2,5.4c-1.1,1.6-2.7,2.6-4.6,2.8C280.7,105.6,280.3,105.7,279.9,105.7z M279.9,91.8
					c-0.4,0-0.8,0-1.1,0.1c-3.7,0.6-6.1,4.1-5.5,7.7c0.7,3.7,4.2,6.1,7.8,5.5c1.7-0.3,3.3-1.2,4.3-2.7c1-1.5,1.5-3.3,1.2-5l0,0
					c-0.3-1.8-1.2-3.3-2.7-4.4C282.6,92.2,281.3,91.8,279.9,91.8z"/>
			</g>
			<g>
				<path class="st59" d="M351.8,129.4c0.6,3.8-2,7.4-5.7,8.1c-3.8,0.6-7.4-1.9-8-5.7c-0.6-3.8,1.9-7.4,5.7-8
					C347.5,123.1,351.1,125.7,351.8,129.4z"/>
				<path class="st59" d="M344.9,137.8c-1.5,0-3-0.5-4.2-1.4c-1.6-1.1-2.6-2.8-2.9-4.6c-0.3-1.9,0.1-3.8,1.2-5.3
					c1.1-1.6,2.8-2.6,4.7-2.9c3.9-0.7,7.6,1.9,8.3,5.8l0,0c0.6,3.9-2,7.6-5.9,8.3C345.7,137.8,345.3,137.8,344.9,137.8z M345,123.9
					c-0.4,0-0.8,0-1.2,0.1c-1.8,0.3-3.3,1.3-4.4,2.7s-1.5,3.2-1.2,5c0.3,1.8,1.2,3.3,2.7,4.4c1.5,1.1,3.3,1.5,5.1,1.2
					c3.6-0.6,6.1-4.1,5.5-7.8C351,126.2,348.2,123.9,345,123.9z"/>
			</g>
			<g>
				<path class="st59" d="M343.4,173.9c0.7,3.8-1.9,7.4-5.7,8c-3.8,0.6-7.4-2-8-5.7c-0.7-3.8,1.9-7.3,5.7-8
					C339.2,167.6,342.8,170.2,343.4,173.9z"/>
				<path class="st59" d="M336.5,182.3c-1.5,0-3-0.5-4.2-1.4c-1.5-1.1-2.5-2.8-2.8-4.6c-0.3-1.8,0.1-3.7,1.2-5.2
					c1.1-1.6,2.8-2.6,4.7-3c1.9-0.3,3.8,0.1,5.4,1.2c1.5,1.1,2.6,2.8,2.9,4.6c0.3,1.9-0.1,3.8-1.2,5.3c-1.1,1.6-2.8,2.6-4.7,2.9
					C337.3,182.3,336.9,182.3,336.5,182.3z M336.6,168.4c-0.4,0-0.8,0-1.2,0.1c-1.8,0.3-3.4,1.3-4.4,2.8c-1,1.4-1.4,3.2-1.1,4.9
					c0.3,1.8,1.2,3.3,2.7,4.4c1.5,1.1,3.2,1.5,5,1.2c1.8-0.3,3.4-1.3,4.4-2.8c1-1.5,1.4-3.2,1.1-5l0,0c-0.3-1.8-1.2-3.3-2.7-4.4
					C339.3,168.8,338,168.4,336.6,168.4z"/>
			</g>
			<g>
				<path class="st59" d="M341.3,236.5c0.7,3.9-1.9,7.4-5.7,8c-3.8,0.7-7.4-1.9-8-5.7c-0.7-3.8,1.9-7.3,5.7-8
					C337.1,230.3,340.7,232.8,341.3,236.5z"/>
				<path class="st59" d="M334.4,244.9c-1.5,0-2.9-0.4-4.1-1.3c-1.6-1.1-2.6-2.8-2.9-4.7c-0.7-3.8,2-7.5,5.9-8.3
					c1.9-0.3,3.8,0.1,5.4,1.3c1.5,1.1,2.5,2.7,2.8,4.6c0.3,1.9-0.1,3.8-1.1,5.4c-1.1,1.6-2.8,2.6-4.7,2.9
					C335.3,244.9,334.8,244.9,334.4,244.9z M334.5,231c-0.4,0-0.7,0-1.1,0.1c-3.7,0.7-6.1,4.1-5.5,7.8c0.3,1.8,1.3,3.4,2.7,4.4
					c1.5,1,3.2,1.4,5,1.1c1.8-0.3,3.4-1.3,4.4-2.8c1-1.4,1.4-3.2,1.1-5v0c-0.3-1.7-1.2-3.2-2.6-4.3C337.3,231.5,335.9,231,334.5,231
					z"/>
			</g>
			<g>
				<path class="st59" d="M296,275.6c0.7,3.8-1.9,7.3-5.7,8c-3.8,0.6-7.4-2-8-5.7c-0.6-3.8,1.9-7.4,5.7-8
					C291.8,269.3,295.4,271.8,296,275.6z"/>
				<path class="st59" d="M289.2,283.9c-3.5,0-6.5-2.5-7.1-6c-0.6-3.9,2-7.6,5.9-8.2c1.9-0.3,3.8,0.1,5.4,1.2
					c1.5,1.1,2.6,2.8,2.9,4.6c0.3,1.9,0,3.7-1.1,5.2c-1.1,1.6-2.8,2.7-4.8,3C289.9,283.9,289.5,283.9,289.2,283.9z M289.2,270
					c-0.4,0-0.8,0-1.1,0.1c-3.6,0.6-6.1,4.1-5.5,7.8c0.6,3.6,4,6.1,7.7,5.5c1.9-0.3,3.5-1.4,4.5-2.8c1-1.4,1.4-3.2,1-4.9v0
					c-0.3-1.8-1.2-3.3-2.7-4.3C291.9,270.5,290.6,270,289.2,270z"/>
			</g>
			<g>
				<path class="st59" d="M208.4,109.5c0.7,3.8-1.9,7.4-5.7,8c-3.8,0.7-7.4-1.9-8-5.6c-0.6-3.8,1.9-7.4,5.8-8
					C204.1,103.1,207.7,105.7,208.4,109.5z"/>
				<path class="st59" d="M201.4,117.8c-1.4,0-2.9-0.4-4.1-1.3c-1.6-1.1-2.6-2.8-2.9-4.6c-0.3-1.9,0.1-3.8,1.2-5.4
					c1.1-1.6,2.8-2.6,4.7-2.9c1.8-0.3,3.7,0.1,5.3,1.2c1.6,1.1,2.6,2.8,2.9,4.7c0.3,1.9-0.1,3.7-1.2,5.3c-1.1,1.6-2.8,2.6-4.7,3
					C202.3,117.8,201.8,117.8,201.4,117.8z M201.6,103.9c-0.4,0-0.8,0-1.1,0.1c-1.8,0.3-3.4,1.3-4.4,2.7c-1.1,1.5-1.5,3.3-1.2,5.1
					c0.3,1.8,1.3,3.3,2.8,4.3c1.5,1,3.2,1.4,5,1.1c1.8-0.3,3.4-1.3,4.4-2.8c1-1.5,1.4-3.2,1.1-5l0,0c-0.3-1.8-1.3-3.3-2.8-4.4
					C204.2,104.3,202.9,103.9,201.6,103.9z"/>
			</g>
			<g>
				<path class="st59" d="M156,129.6c0.6,3.7-1.9,7.3-5.7,8c-3.7,0.6-7.3-1.9-7.9-5.7c-0.7-3.8,1.9-7.4,5.7-8
					C151.8,123.2,155.4,125.7,156,129.6z"/>
				<path class="st59" d="M149.2,137.9c-1.4,0-2.9-0.4-4.1-1.3c-1.6-1.1-2.6-2.8-2.9-4.6c-0.3-1.9,0.1-3.8,1.2-5.3
					c1.1-1.6,2.8-2.6,4.7-3c1.9-0.3,3.8,0.2,5.4,1.3c1.5,1.1,2.5,2.8,2.8,4.7c0.3,1.9-0.1,3.8-1.2,5.3c-1.1,1.6-2.8,2.6-4.7,2.9
					C149.9,137.8,149.6,137.9,149.2,137.9z M149.2,124c-0.4,0-0.7,0-1.1,0.1c-1.8,0.3-3.4,1.3-4.4,2.8c-1,1.5-1.4,3.2-1.1,5
					c0.3,1.8,1.3,3.3,2.7,4.4c1.4,1,3.2,1.4,4.9,1.1c1.8-0.3,3.3-1.2,4.4-2.7c1-1.5,1.4-3.2,1.2-5l0,0c-0.3-1.8-1.2-3.3-2.7-4.4
					C152,124.4,150.6,124,149.2,124z"/>
			</g>
			<g>
				<path class="st59" d="M111.4,190.8c0.7,3.8-1.8,7.4-5.6,8c-3.8,0.6-7.4-2-8.1-5.7c-0.6-3.8,1.9-7.4,5.7-8
					C107.2,184.4,110.7,187,111.4,190.8z"/>
				<path class="st59" d="M104.6,199.1c-3.5,0-6.6-2.5-7.2-6c-0.6-3.9,2-7.6,5.9-8.3c3.9-0.7,7.5,1.9,8.2,5.9c0.4,1.9,0,3.8-1.1,5.3
					c-1.1,1.6-2.8,2.6-4.7,3C105.4,199.1,105,199.1,104.6,199.1z M104.6,185.2c-0.4,0-0.8,0-1.2,0.1c-3.7,0.6-6.1,4-5.5,7.8
					c0.6,3.6,4.1,6.1,7.8,5.6c1.8-0.3,3.4-1.3,4.4-2.8c1-1.5,1.4-3.2,1-5l0,0C110.6,187.5,107.8,185.2,104.6,185.2z"/>
			</g>
			<g>
				<path class="st59" d="M93.8,259.3c0.7,3.8-1.9,7.4-5.7,8c-3.7,0.7-7.4-1.9-8-5.6c-0.7-3.9,1.9-7.4,5.7-8
					C89.6,253,93.2,255.6,93.8,259.3z"/>
				<path class="st59" d="M86.9,267.7c-1.4,0-2.8-0.4-4.1-1.3c-1.6-1.1-2.6-2.8-2.9-4.6c-0.3-1.9,0.1-3.8,1.2-5.4
					c1.1-1.6,2.8-2.6,4.7-2.9c1.9-0.3,3.8,0.1,5.4,1.2c1.6,1.1,2.6,2.8,2.9,4.6c0.3,1.9-0.1,3.8-1.2,5.4c-1.1,1.6-2.8,2.6-4.7,2.9
					C87.7,267.6,87.3,267.7,86.9,267.7z M87,253.8c-0.4,0-0.8,0-1.2,0.1c-1.8,0.3-3.4,1.3-4.4,2.8c-1,1.4-1.4,3.2-1.1,5
					c0.3,1.8,1.3,3.3,2.8,4.3c1.5,1,3.2,1.4,5,1.1c1.8-0.3,3.3-1.2,4.4-2.7c1-1.5,1.5-3.3,1.2-5l0,0c-0.3-1.7-1.2-3.3-2.7-4.3
					C89.7,254.2,88.4,253.8,87,253.8z"/>
			</g>
			<g>
				<path class="st59" d="M270.8,194.4c0.7,3.8-1.9,7.4-5.6,8.1c-3.8,0.6-7.4-2-7.9-5.8c-0.7-3.7,1.8-7.2,5.6-7.9
					C266.6,188,270.2,190.6,270.8,194.4z"/>
				<path class="st59" d="M264,202.7c-1.5,0-3-0.5-4.2-1.4c-1.5-1.1-2.5-2.8-2.8-4.7c-0.4-1.8,0-3.7,1.1-5.2
					c1.1-1.6,2.8-2.6,4.7-2.9c1.9-0.4,3.8,0.1,5.3,1.2c1.6,1.1,2.6,2.8,2.9,4.6c0.3,1.9-0.1,3.8-1.2,5.4c-1.1,1.6-2.7,2.6-4.6,2.9
					C264.8,202.7,264.4,202.7,264,202.7z M264.1,188.8c-0.4,0-0.8,0-1.2,0.1c-1.8,0.3-3.4,1.3-4.4,2.8c-1,1.4-1.4,3.2-1,4.9
					c0.3,1.8,1.2,3.4,2.6,4.4c1.5,1.1,3.2,1.5,5,1.2c1.8-0.3,3.3-1.3,4.3-2.8c1-1.5,1.4-3.3,1.1-5.1l0,0c-0.3-1.8-1.2-3.3-2.7-4.4
					C266.7,189.2,265.4,188.8,264.1,188.8z"/>
			</g>
			<g>
				<path class="st59" d="M249,233.8c0.6,3.8-1.9,7.4-5.7,8c-3.8,0.6-7.4-1.9-8-5.7c-0.6-3.8,1.9-7.4,5.7-8
					C244.8,227.5,248.4,230,249,233.8z"/>
				<path class="st59" d="M242.1,242.2c-3.4,0-6.5-2.5-7.1-5.9c-0.6-3.9,2-7.6,5.9-8.3c1.9-0.3,3.8,0.1,5.4,1.2
					c1.6,1.1,2.6,2.8,2.9,4.6c0.3,1.9-0.1,3.8-1.2,5.4c-1.1,1.6-2.8,2.6-4.6,2.9C242.9,242.1,242.5,242.2,242.1,242.2z M242.1,228.3
					c-0.4,0-0.8,0-1.1,0.1c-3.6,0.6-6.1,4.1-5.5,7.8c0.6,3.6,4.1,6.1,7.8,5.5c1.8-0.3,3.3-1.2,4.4-2.7c1.1-1.5,1.5-3.2,1.2-5l0,0
					c-0.3-1.8-1.3-3.3-2.7-4.4C244.9,228.7,243.5,228.3,242.1,228.3z"/>
			</g>
			<g>
				<path class="st59" d="M341.3,325.6c0.6,3.2-1.6,6.3-4.7,6.8c-3.2,0.5-6.3-1.6-6.8-4.8c-0.5-3.2,1.6-6.2,4.9-6.7
					C337.8,320.2,340.8,322.4,341.3,325.6z"/>
				<path class="st59" d="M335.6,332.7c-1.3,0-2.5-0.4-3.6-1.1c-1.3-1-2.2-2.4-2.5-3.9c-0.5-3.3,1.7-6.4,5-7c1.6-0.3,3.2,0.1,4.5,1
					c1.3,0.9,2.2,2.3,2.4,3.9c0.3,1.6,0,3.2-1,4.6c-0.9,1.3-2.3,2.2-3.9,2.5C336.3,332.6,335.9,332.7,335.6,332.7z M335.6,320.9
					c-0.3,0-0.6,0-1,0.1c-3.1,0.5-5.2,3.4-4.7,6.5c0.2,1.5,1,2.8,2.3,3.6c1.2,0.9,2.8,1.2,4.2,1c1.5-0.3,2.8-1.1,3.6-2.3
					c0.9-1.2,1.2-2.7,0.9-4.2v0c-0.2-1.5-1-2.8-2.2-3.6C337.9,321.3,336.8,320.9,335.6,320.9z"/>
			</g>
		</g>
	</g>
</g>
</svg>
