<?xml version="1.0" encoding="utf-8"?>
<!-- Generator: Adobe Illustrator 25.0.0, SVG Export Plug-In . SVG Version: 6.00 Build 0)  -->
<svg version="1.1" id="Layer_1" xmlns="http://www.w3.org/2000/svg" xmlns:xlink="http://www.w3.org/1999/xlink" x="0px" y="0px"
	 viewBox="0 0 100 93" style="enable-background:new 0 0 100 93;" xml:space="preserve">
<style type="text/css">
	.st0{fill:#888888;}
</style>
<g>
	<path class="st0" d="M88.8,67.1L67.5,45.8l11.4-11.4l3.8-3.8l5-5c3.4-3.4,3.4-9,0-12.5l-3.8-3.8c-1.7-1.7-3.9-2.6-6.2-2.6
		s-4.6,0.9-6.2,2.6l-5.1,5l-3.8,3.8L51.2,29.5L29.9,8.2c-1.9-1.9-5.2-1.9-7.1,0L11.2,19.8c-1,1-1.5,2.2-1.5,3.6
		c0,1.3,0.5,2.6,1.5,3.6l2.7,2.7l0,0l0,0l3.8,3.8l0,0l0,0l3.8,3.8c0,0,0,0,0,0c0,0,0,0,0,0l3.8,3.8c0,0,0,0,0,0c0,0,0,0,0,0l3.8,3.8
		c0,0,0,0,0,0c0,0,0,0,0,0l3.3,3.3L17.2,63.6c0,0,0,0,0,0c0,0-0.1,0.1-0.1,0.1c-0.1,0.1-0.2,0.3-0.2,0.4c0,0,0,0,0,0.1l-3.7,11l0,0
		l-3.3,9.8c-0.2,0.6,0,1.3,0.4,1.7c0.3,0.3,0.7,0.5,1.2,0.5c0.2,0,0.4,0,0.5-0.1l9.8-3.3c0,0,0,0,0,0l11-3.7c0,0,0,0,0,0
		c0.1,0,0.2-0.1,0.3-0.2c0.1-0.1,0.2-0.1,0.3-0.2c0,0,0,0,0,0l15.3-15.3l18.6,18.6c0,0,0,0,0,0c0,0,0,0,0,0l2.7,2.7
		c1,1,2.2,1.5,3.6,1.5c1.3,0,2.6-0.5,3.6-1.5l11.6-11.6C90.8,72.2,90.8,69,88.8,67.1z M64,44.6C63.9,44.6,63.9,44.6,64,44.6L47.6,61
		c0,0,0,0,0,0L33.3,75.3l-0.5-2.4l41.1-41.1l1.4,1.4L64,44.6z M14.1,83l1.7-5.1c0.8,0.3,1.4,0.8,2,1.4c0.6,0.6,1.1,1.3,1.4,2
		L14.1,83z M20.2,76.9c-1-1-2.1-1.7-3.3-2.2l2.7-8l3.7,0.7l0.5,4.5c0.1,0.8,0.7,1.4,1.5,1.5l4.5,0.5l0.7,3.7l-8,2.7
		C21.8,79,21.1,77.8,20.2,76.9z M67.6,17.9l10,10l1.5,1.5l-1.4,1.4L66.2,19.4L67.6,17.9z M71.5,29.4L30.4,70.6l-3.5-0.4l-0.4-3.5
		l41.2-41.2L71.5,29.4z M73.8,11.7c2.1-2.1,5.7-2.1,7.7,0l3.8,3.8c2.1,2.1,2.1,5.6,0,7.7l-3.9,3.9L70,15.6L73.8,11.7z M13.6,22.2
		l11.6-11.6c0.3-0.3,0.7-0.5,1.2-0.5c0.4,0,0.9,0.2,1.2,0.5l21.3,21.3L38.6,42.2c-0.6-0.2-1.3-0.1-1.8,0.4l-2.6,2.6l-1.4-1.4
		l5.2-5.2c0.7-0.7,0.7-1.7,0-2.4c-0.7-0.7-1.7-0.7-2.4,0l-5.2,5.2l-1.4-1.4l2.6-2.6c0.7-0.7,0.7-1.7,0-2.4c-0.7-0.7-1.7-0.7-2.4,0
		l-2.6,2.6l-1.4-1.4l2.6-2.6c0.7-0.7,0.7-1.7,0-2.4c-0.7-0.7-1.7-0.7-2.4,0l-2.6,2.6l-1.4-1.4l2.6-2.6c0.7-0.7,0.7-1.7,0-2.4
		c-0.7-0.7-1.7-0.7-2.4,0l-2.6,2.6l-1.4-1.4l2.6-2.6c0.7-0.7,0.7-1.7,0-2.4s-1.7-0.7-2.4,0l-2.6,2.6l-1.5-1.5
		c-0.3-0.3-0.5-0.7-0.5-1.2C13.1,23,13.2,22.5,13.6,22.2z M36,49.5C36,49.5,36.1,49.5,36,49.5l16.4-16.4c0,0,0,0,0,0l11.4-11.3
		l1.4,1.4L24.1,64.2l-2.4-0.5L36,49.5z M86.4,71.8L74.8,83.5c-0.6,0.6-1.7,0.6-2.4,0l-1.5-1.5l5.2-5.2c0.7-0.7,0.7-1.7,0-2.4
		c-0.7-0.7-1.7-0.7-2.4,0l-5.2,5.2l-1.4-1.4l2.6-2.6c0.7-0.7,0.7-1.7,0-2.4c-0.7-0.7-1.7-0.7-2.4,0l-2.6,2.6l-1.4-1.4l2.6-2.6
		c0.7-0.7,0.7-1.7,0-2.4c-0.7-0.7-1.7-0.7-2.4,0l-2.6,2.6l-1.4-1.4l2.6-2.6c0.7-0.7,0.7-1.7,0-2.4c-0.7-0.7-1.7-0.7-2.4,0l-2.6,2.6
		l-1.4-1.4l2.6-2.6c0.7-0.7,0.7-1.7,0-2.4c-0.7-0.7-1.7-0.7-2.4,0l-2.6,2.6l-1.4-1.4l5.2-5.2c0.5-0.5,0.6-1.2,0.4-1.8l7.8-7.8
		l21.3,21.3C87.1,70.1,87.1,71.2,86.4,71.8z"/>
	<path class="st0" d="M26.4,23.8c1.3,0,2.5-0.5,3.4-1.4c1.9-1.9,1.9-4.9,0-6.7c-1.8-1.8-4.9-1.8-6.7,0c-1.9,1.9-1.9,4.9,0,6.7
		C23.9,23.3,25.1,23.8,26.4,23.8z M25.4,18c0.3-0.3,0.6-0.4,1-0.4s0.7,0.1,1,0.4c0.6,0.6,0.6,1.4,0,2c-0.5,0.5-1.5,0.5-2,0
		C24.8,19.5,24.8,18.6,25.4,18z"/>
</g>
</svg>
