<?xml version="1.0" encoding="utf-8"?>
<!-- Generator: Adobe Illustrator 25.0.0, SVG Export Plug-In . SVG Version: 6.00 Build 0)  -->
<svg version="1.1" id="Layer_1" xmlns="http://www.w3.org/2000/svg" xmlns:xlink="http://www.w3.org/1999/xlink" x="0px" y="0px"
	 viewBox="0 0 100 93" style="enable-background:new 0 0 100 93;" xml:space="preserve">
<style type="text/css">
	.st0{fill:#888888;}
</style>
<g>
	<path class="st0" d="M14,45.3c0.5,0,1-0.2,1.3-0.5l18.7-18l19.4,15.3c0.7,0.5,1.7,0.6,2.4,0l27.9-21.6l-1.1,13.7
		c-0.1,1.1,0.7,2,1.8,2c0.1,0,0.1,0,0.2,0c1,0,1.8-0.8,1.9-1.8l1.4-18.1c0.1-1.1-0.7-2-1.8-2c0,0,0,0,0,0L66.6,13
		c-1.1-0.1-2,0.7-2,1.8c-0.1,1.1,0.7,2,1.8,2l14.5,1L54.6,38.2L35.1,22.8c-0.7-0.6-1.8-0.5-2.5,0.1L12.6,42.1
		c-0.8,0.7-0.8,2-0.1,2.7C12.9,45.1,13.4,45.3,14,45.3L14,45.3z"/>
	<path class="st0" d="M87.4,83.5h-5V50.3c0-1.1-0.9-1.8-2-1.8H68.3c-1.1,0-1.9,0.8-1.9,1.8v33.2H58V56.4c0-1.1-0.9-2-2-2H43.9
		c-1.1,0-1.9,0.9-2,2v27.1h-8.4V64.5c0-1.1-0.8-1.9-1.9-1.9l0,0H19.4c-1.1,0-2,0.9-2,1.9v18.9h-5c-1.1,0-1.9,0.9-1.9,1.9
		c0,1.1,0.9,1.9,1.9,1.9h75c1.1,0,1.9-0.9,1.9-1.9C89.4,84.3,88.5,83.5,87.4,83.5z M21.3,83.5v-17h8.4v17H21.3z M45.7,83.5V58.2h8.4
		v25.2H45.7z M70.2,83.5V52.3h8.4v31.2H70.2z"/>
</g>
</svg>
